# 3ds Max Wavefront OBJ Exporter v0.97b - (c)2007 guruware
# File Created: 08.09.2011 17:05:09

mtllib WoodPlankBlock.mtl

#
# object Box01
#

v  -0.500000 0.000000 0.500000
v  -0.500000 0.000000 -0.500000
v  0.500000 0.000000 -0.500000
v  0.500000 0.000000 0.500000
v  -0.500000 1.000000 0.500000
v  0.500000 1.000000 0.500000
v  0.500000 1.000000 -0.500000
v  -0.500000 1.000000 -0.500000
# 8 vertices

vn 0.000000 -1.000000 -0.000000
vn 0.000000 1.000000 -0.000000
vn 0.000000 0.000000 1.000000
vn 1.000000 0.000000 -0.000000
vn 0.000000 0.000000 -1.000000
vn -1.000000 0.000000 -0.000000
# 6 vertex normals

vt 0.999500 0.999501 0.000500
vt 0.000500 0.999500 0.000500
vt 0.000500 0.000499 0.000500
vt 0.999500 0.000500 0.000500
vt 0.000500 0.999501 0.999500
vt 0.000500 0.000500 0.999500
vt 0.999500 0.000499 0.999500
vt 0.999500 0.999500 0.999500
vt 0.000500 0.999501 0.000500
vt 0.000500 0.000500 0.000500
vt 0.999500 0.999500 0.000499
vt 0.000500 0.999500 0.000499
vt 0.000500 0.999500 0.999500
vt 0.000500 0.000499 0.999500
vt 0.000500 0.000500 0.999501
vt 0.999500 0.000500 0.999501
# 16 texture coords

g Box01
usemtl 01___Default
s 2
f 1/1/1 2/2/1 3/3/1 
f 3/3/1 4/4/1 1/1/1 
s 4
f 5/5/2 6/6/2 7/7/2 
f 7/7/2 8/8/2 5/5/2 
s 8
f 1/9/3 4/10/3 6/4/3 
f 6/4/3 5/1/3 1/9/3 
s 16
f 4/4/4 3/11/4 7/12/4 
f 7/12/4 6/10/4 4/4/4 
s 32
f 3/7/5 2/8/5 8/13/5 
f 8/13/5 7/14/5 3/7/5 
s 64
f 2/13/6 1/15/6 5/16/6 
f 5/16/6 8/8/6 2/13/6 
# 12 faces

