# 3ds Max Wavefront OBJ Exporter v0.97b - (c)2007 guruware
# File Created: 08.11.2010 18:07:10

mtllib Cog16.mtl

#
# object Box035
#

v  0.2907 0.9248 0.2500
v  0.2907 0.9248 -0.2500
v  0.4242 0.8717 -0.2500
v  0.4242 0.8717 0.2500
v  0.6217 0.7438 -0.2500
v  0.6217 0.7438 0.2500
v  0.3477 1.1058 0.2500
v  0.4937 1.0488 0.2500
v  0.4937 1.0488 -0.2500
v  0.3477 1.1058 -0.2500
v  0.7192 1.1974 0.1500
v  0.7828 1.1568 0.1500
v  0.7828 1.1568 -0.1500
v  0.7192 1.1974 -0.1500
v  0.7435 0.8893 0.2500
v  0.7435 0.8893 -0.2500
v  0.8588 0.4497 0.2500
v  0.8588 0.4497 -0.2500
v  0.9160 0.3175 -0.2500
v  0.9160 0.3175 0.2500
v  0.9656 0.0865 -0.2500
v  0.9656 0.0865 0.2500
v  1.0269 0.5377 0.2500
v  1.0903 0.3937 0.2500
v  1.0903 0.3937 -0.2500
v  1.0269 0.5377 -0.2500
v  1.3548 0.3398 0.1500
v  1.3712 0.2661 0.1500
v  1.3712 0.2661 -0.1500
v  1.3548 0.3398 -0.1500
v  1.1546 0.1034 0.2500
v  1.1546 0.1034 -0.2500
v  0.7252 0.6433 -0.2500
v  0.7252 0.6433 0.2500
v  0.8572 0.7804 0.2500
v  0.8572 0.7804 -0.2500
v  1.1223 0.8315 0.1500
v  1.1656 0.7697 0.1500
v  1.1656 0.7697 -0.1500
v  1.1223 0.8315 -0.1500
v  0.9677 -0.0586 -0.2500
v  0.9677 -0.0586 0.2500
v  0.9251 -0.2901 -0.2500
v  0.9251 -0.2901 0.2500
v  1.1579 -0.0551 0.2500
v  1.1579 -0.0551 -0.2500
v  1.3814 -0.2066 0.1500
v  1.3683 -0.2809 0.1500
v  1.3683 -0.2809 -0.1500
v  1.3814 -0.2066 -0.1500
v  1.1061 -0.3469 0.2500
v  1.1061 -0.3469 -0.2500
v  0.7440 -0.6216 0.2500
v  0.7440 -0.6216 -0.2500
v  0.6437 -0.7250 -0.2500
v  0.6437 -0.7250 0.2500
v  0.4493 -0.8592 -0.2500
v  0.4493 -0.8592 0.2500
v  0.8896 -0.7433 0.2500
v  0.7808 -0.8569 0.2500
v  0.7808 -0.8569 -0.2500
v  0.8896 -0.7433 -0.2500
v  0.8321 -1.1219 0.1500
v  0.7703 -1.1653 0.1500
v  0.7703 -1.1653 -0.1500
v  0.8321 -1.1219 -0.1500
v  0.5371 -1.0273 0.2500
v  0.5371 -1.0273 -0.2500
v  0.8718 -0.4241 -0.2500
v  0.8718 -0.4241 0.2500
v  1.0489 -0.4936 0.2500
v  1.0489 -0.4936 -0.2500
v  1.1976 -0.7190 0.1500
v  1.1570 -0.7826 0.1500
v  1.1570 -0.7826 -0.1500
v  1.1976 -0.7190 -0.1500
v  0.3160 -0.9166 -0.2500
v  0.3160 -0.9166 0.2500
v  0.0858 -0.9658 -0.2500
v  0.0858 -0.9658 0.2500
v  0.3919 -1.0910 0.2500
v  0.3919 -1.0910 -0.2500
v  0.3375 -1.3555 0.1500
v  0.2638 -1.3718 0.1500
v  0.2638 -1.3718 -0.1500
v  0.3375 -1.3555 -0.1500
v  0.1026 -1.1548 0.2500
v  0.1026 -1.1548 -0.2500
v  -0.2897 -0.9253 0.2500
v  -0.2897 -0.9253 -0.2500
v  -0.4236 -0.8722 -0.2500
v  -0.4236 -0.8722 0.2500
v  -0.6220 -0.7438 -0.2500
v  -0.6220 -0.7438 0.2500
v  -0.3465 -1.1064 0.2500
v  -0.4930 -1.0493 0.2500
v  -0.4930 -1.0493 -0.2500
v  -0.3465 -1.1064 -0.2500
v  -0.7183 -1.1981 0.1500
v  -0.7820 -1.1575 0.1500
v  -0.7820 -1.1575 -0.1500
v  -0.7183 -1.1981 -0.1500
v  -0.7438 -0.8893 0.2500
v  -0.7438 -0.8893 -0.2500
v  -0.0584 -0.9678 -0.2500
v  -0.0584 -0.9678 0.2500
v  -0.0549 -1.1580 0.2500
v  -0.0549 -1.1580 -0.2500
v  -0.2062 -1.3816 0.1500
v  -0.2806 -1.3685 0.1500
v  -0.2806 -1.3685 -0.1500
v  -0.2062 -1.3816 -0.1500
v  -0.7261 -0.6426 -0.2500
v  -0.7261 -0.6426 0.2500
v  -0.8595 -0.4488 -0.2500
v  -0.8595 -0.4488 0.2500
v  -0.8581 -0.7796 0.2500
v  -0.8581 -0.7796 -0.2500
v  -1.1233 -0.8304 0.1500
v  -1.1665 -0.7685 0.1500
v  -1.1665 -0.7685 -0.1500
v  -1.1233 -0.8304 -0.1500
v  -1.0277 -0.5366 0.2500
v  -1.0277 -0.5366 -0.2500
v  -0.9657 -0.0864 0.2500
v  -0.9657 -0.0864 -0.2500
v  -0.9679 0.0577 -0.2500
v  -0.9679 0.0577 0.2500
v  -0.9252 0.2901 -0.2500
v  -0.9252 0.2901 0.2500
v  -1.1548 -0.1032 0.2500
v  -1.1581 0.0541 0.2500
v  -1.1581 0.0541 -0.2500
v  -1.1548 -0.1032 -0.2500
v  -1.3818 0.2053 0.1500
v  -1.3686 0.2797 0.1500
v  -1.3686 0.2797 -0.1500
v  -1.3818 0.2053 -0.1500
v  -1.1062 0.3469 0.2500
v  -1.1062 0.3469 -0.2500
v  -0.9166 -0.3163 -0.2500
v  -0.9166 -0.3163 0.2500
v  -1.0910 -0.3923 0.2500
v  -1.0910 -0.3923 -0.2500
v  -1.3554 -0.3380 0.1500
v  -1.3717 -0.2643 0.1500
v  -1.3717 -0.2643 -0.1500
v  -1.3554 -0.3380 -0.1500
v  -0.8715 0.4249 -0.2500
v  -0.8715 0.4249 0.2500
v  -0.7434 0.6223 -0.2500
v  -0.7434 0.6223 0.2500
v  -1.0485 0.4946 0.2500
v  -1.0485 0.4946 -0.2500
v  -1.1970 0.7201 0.1500
v  -1.1563 0.7838 0.1500
v  -1.1563 0.7838 -0.1500
v  -1.1970 0.7201 -0.1500
v  -0.8889 0.7442 0.2500
v  -0.8889 0.7442 -0.2500
v  -0.4492 0.8592 0.2500
v  -0.4492 0.8592 -0.2500
v  -0.3169 0.9162 -0.2500
v  -0.3169 0.9162 0.2500
v  -0.0859 0.9657 -0.2500
v  -0.0859 0.9657 0.2500
v  -0.5370 1.0274 0.2500
v  -0.3930 1.0906 0.2500
v  -0.3930 1.0906 -0.2500
v  -0.5370 1.0274 -0.2500
v  -0.3388 1.3551 0.1500
v  -0.2651 1.3714 0.1500
v  -0.2651 1.3714 -0.1500
v  -0.3388 1.3551 -0.1500
v  -0.1026 1.1547 0.2500
v  -0.1026 1.1547 -0.2500
v  -0.6428 0.7258 -0.2500
v  -0.6428 0.7258 0.2500
v  -0.7798 0.8578 0.2500
v  -0.7798 0.8578 -0.2500
v  -0.8308 1.1230 0.1500
v  -0.7689 1.1662 0.1500
v  -0.7689 1.1662 -0.1500
v  -0.8308 1.1230 -0.1500
v  0.0593 0.9676 -0.2500
v  0.0593 0.9676 0.2500
v  0.0559 1.1579 0.2500
v  0.0559 1.1579 -0.2500
v  0.2076 1.3813 0.1500
v  0.2819 1.3680 0.1500
v  0.2819 1.3680 -0.1500
v  0.2076 1.3813 -0.1500
# 192 vertices

vn -0.0723 -0.9974 -0.0000
vn -0.1694 -0.9855 -0.0000
vn -0.3581 -0.9337 -0.0000
vn 0.0658 0.9978 -0.0000
vn 0.2585 0.9660 -0.0000
vn 0.0000 0.0000 1.0000
vn -0.0000 -0.0000 -1.0000
vn 0.0000 -0.0000 -1.0000
vn -0.7767 0.6299 -0.0000
vn 0.0972 0.3630 0.9267
vn 0.0972 0.3631 0.9267
vn 0.9871 0.1598 0.0000
vn 0.9871 0.1598 -0.0000
vn 0.0972 0.3630 -0.9267
vn 0.0971 0.3630 -0.9267
vn -0.6877 -0.7260 -0.0000
vn -0.8161 -0.5780 -0.0000
vn -0.9133 -0.4073 -0.0000
vn 0.7512 0.6601 0.0000
vn 0.7512 0.6601 -0.0000
vn 0.8653 0.5013 -0.0000
vn -0.1050 0.9945 -0.0000
vn 0.3252 0.1881 0.9267
vn 0.3252 0.1884 0.9267
vn 0.8138 -0.5812 -0.0000
vn 0.3253 0.1881 -0.9267
vn 0.3250 0.1883 -0.9268
vn -0.5331 -0.8460 -0.0000
vn 0.4420 0.8970 0.0000
vn 0.4420 0.8970 -0.0000
vn 0.6081 0.7938 -0.0000
vn -0.4769 0.8790 -0.0000
vn 0.2286 0.2983 0.9267
vn 0.2286 0.2984 0.9267
vn 0.9731 -0.2302 -0.0000
vn 0.2286 0.2983 -0.9267
vn 0.2285 0.2983 -0.9267
vn -0.9753 -0.2208 -0.0000
vn -0.9997 -0.0263 -0.0000
vn 0.9469 0.3215 -0.0000
vn 0.9914 0.1307 -0.0000
vn -0.0000 0.0000 -1.0000
vn 0.2849 0.9585 -0.0000
vn 0.3726 0.0490 0.9267
vn 0.3726 0.0491 0.9267
vn 0.5252 -0.8509 -0.0000
vn 0.3726 0.0490 -0.9267
vn 0.3725 0.0491 -0.9267
vn -0.9338 0.3577 -0.0000
vn -0.8462 0.5329 -0.0000
vn -0.7256 0.6881 -0.0000
vn 0.8972 -0.4416 -0.0000
vn 0.7942 -0.6077 -0.0000
vn 0.8787 0.4774 -0.0000
vn 0.2982 -0.2285 0.9267
vn 0.2985 -0.2284 0.9267
vn -0.2258 -0.9742 -0.0000
vn 0.2982 -0.2286 -0.9267
vn 0.2983 -0.2282 -0.9268
vn -0.9856 0.1690 -0.0000
vn 0.9979 -0.0653 -0.0000
vn 0.9661 -0.2582 -0.0000
vn 0.6297 0.7768 -0.0000
vn 0.3630 -0.0971 0.9267
vn 0.3631 -0.0971 0.9267
vn 0.1595 -0.9872 -0.0000
vn 0.3631 -0.0971 -0.9267
vn 0.3630 -0.0970 -0.9267
vn -0.5771 0.8167 -0.0000
vn -0.4066 0.9136 -0.0000
vn 0.6593 -0.7519 -0.0000
vn 0.4999 -0.8661 -0.0000
vn 0.9946 0.1034 -0.0000
vn 0.1878 -0.3255 0.9267
vn 0.1879 -0.3255 0.9267
vn -0.5853 -0.8108 -0.0000
vn 0.1878 -0.3255 -0.9267
vn 0.1879 -0.3254 -0.9267
vn -0.0267 0.9996 -0.0000
vn 0.1687 0.9857 -0.0000
vn 0.3582 0.9336 -0.0000
vn -0.0648 -0.9979 0.0000
vn -0.0648 -0.9979 -0.0000
vn -0.2577 -0.9662 -0.0000
vn 0.0000 0.0000 -1.0000
vn 0.7772 -0.6293 -0.0000
vn -0.0971 -0.3629 0.9267
vn -0.0969 -0.3632 0.9267
vn -0.9865 -0.1640 -0.0000
vn -0.0971 -0.3630 -0.9267
vn -0.0968 -0.3629 -0.9268
vn -0.2209 0.9753 -0.0000
vn 0.3213 -0.9470 -0.0000
vn 0.1309 -0.9914 -0.0000
vn 0.9586 -0.2847 -0.0000
vn 0.0491 -0.3726 0.9267
vn 0.0492 -0.3726 0.9267
vn -0.8511 -0.5250 0.0000
vn -0.8511 -0.5250 -0.0000
vn 0.0491 -0.3726 -0.9267
vn 0.0492 -0.3726 -0.9267
vn 0.5339 0.8456 -0.0000
vn 0.6886 0.7252 -0.0000
vn -0.4426 -0.8967 -0.0000
vn -0.6090 -0.7932 -0.0000
vn 0.4760 -0.8795 -0.0000
vn -0.2289 -0.2980 0.9267
vn -0.2289 -0.2981 0.9267
vn -0.9730 0.2307 -0.0000
vn -0.2289 -0.2980 -0.9267
vn -0.2288 -0.2980 -0.9267
vn 0.9134 0.4070 -0.0000
vn 0.9752 0.2211 -0.0000
vn 0.9997 0.0262 -0.0000
vn -0.9468 -0.3218 -0.0000
vn -0.9913 -0.1315 -0.0000
vn -0.2841 -0.9588 -0.0000
vn -0.3725 -0.0491 0.9268
vn -0.3726 -0.0494 0.9267
vn -0.5289 0.8487 -0.0000
vn -0.3725 -0.0491 -0.9267
vn -0.3723 -0.0494 -0.9268
vn 0.8167 0.5771 -0.0000
vn -0.7521 -0.6591 -0.0000
vn -0.8659 -0.5002 -0.0000
vn 0.1036 -0.9946 -0.0000
vn -0.3255 -0.1879 0.9267
vn -0.3255 -0.1880 0.9267
vn -0.8106 0.5856 -0.0000
vn -0.3255 -0.1879 -0.9267
vn -0.3254 -0.1880 -0.9267
vn 0.9855 -0.1698 -0.0000
vn 0.9334 -0.3588 -0.0000
vn -0.9978 0.0659 -0.0000
vn -0.9658 0.2593 -0.0000
vn -0.6305 -0.7762 -0.0000
vn -0.3629 0.0975 0.9267
vn -0.3630 0.0974 0.9267
vn -0.1590 0.9873 -0.0000
vn -0.3629 0.0975 -0.9267
vn -0.3629 0.0974 -0.9267
vn 0.7254 -0.6883 -0.0000
vn 0.5773 -0.8165 -0.0000
vn 0.4065 -0.9136 -0.0000
vn -0.6595 0.7517 0.0000
vn -0.6595 0.7517 -0.0000
vn -0.5007 0.8656 -0.0000
vn -0.9946 -0.1042 -0.0000
vn -0.1878 0.3253 0.9267
vn -0.1882 0.3254 0.9267
vn 0.5819 0.8133 -0.0000
vn -0.1879 0.3254 -0.9267
vn -0.1880 0.3251 -0.9268
vn 0.8456 -0.5338 -0.0000
vn -0.8966 0.4427 -0.0000
vn -0.7933 0.6088 -0.0000
vn -0.8793 -0.4762 -0.0000
vn -0.2981 0.2288 0.9267
vn -0.2982 0.2288 0.9267
vn 0.2310 0.9730 0.0000
vn 0.2310 0.9730 -0.0000
vn -0.2981 0.2289 -0.9267
vn -0.2981 0.2288 -0.9267
vn 0.2200 -0.9755 -0.0000
vn 0.1232 -0.9924 -0.0000
vn -0.3208 0.9472 -0.0000
vn -0.1299 0.9915 -0.0000
vn -0.9583 0.2857 -0.0000
vn -0.0487 0.3726 0.9267
vn -0.0488 0.3727 0.9267
vn 0.8514 0.5246 0.0000
vn 0.8514 0.5246 -0.0000
vn -0.0487 0.3727 -0.9267
vn -0.0488 0.3726 -0.9267
# 174 vertex normals

vt 1.0000 0.0000 0.0000
vt 1.0000 1.0000 0.0000
vt 0.5000 1.0000 0.0000
vt 0.5000 0.0000 0.0000
vt 0.0000 1.0000 0.0000
vt 0.0000 0.0000 0.0000
# 6 texture coords

g Box035
usemtl wire_154154229
s 2
f 1/1/1 2/2/1 3/3/2 
f 3/3/2 4/4/2 1/1/1 
f 4/4/2 3/3/2 5/5/3 
f 5/5/3 6/6/3 4/4/2 
s 4
f 7/6/4 8/4/4 9/3/4 
f 9/3/4 10/5/4 7/6/4 
f 11/4/5 12/1/5 13/2/5 
f 13/2/5 14/3/5 11/4/5 
s 8
f 1/6/6 4/4/6 8/3/6 
f 8/3/6 7/5/6 1/6/6 
f 4/4/6 6/1/6 15/2/6 
f 15/2/6 8/3/6 4/4/6 
s 32
f 5/6/7 3/4/8 9/3/8 
f 9/3/8 16/5/7 5/6/7 
f 3/4/8 2/1/7 10/2/8 
f 10/2/8 9/3/8 3/4/8 
s off
f 9/3/9 8/4/9 11/4/9 
f 11/4/9 14/3/9 9/3/9 
f 8/3/10 15/2/10 12/1/10 
f 12/1/11 11/4/11 8/3/11 
f 15/5/12 16/2/12 13/2/12 
f 13/2/13 12/1/13 15/5/13 
f 16/5/14 9/3/14 14/3/14 
f 14/3/15 13/2/15 16/5/15 
s 2
f 17/1/16 18/2/16 19/3/17 
f 19/3/17 20/4/17 17/1/16 
f 20/4/17 19/3/17 21/5/18 
f 21/5/18 22/6/18 20/4/17 
s 4
f 23/6/19 24/4/20 25/3/19 
f 25/3/19 26/5/19 23/6/19 
f 27/4/21 28/1/21 29/2/21 
f 29/2/21 30/3/21 27/4/21 
s 8
f 17/6/6 20/4/6 24/3/6 
f 24/3/6 23/5/6 17/6/6 
f 20/4/6 22/1/6 31/2/6 
f 31/2/6 24/3/6 20/4/6 
s 32
f 21/6/7 19/4/7 25/3/7 
f 25/3/7 32/5/7 21/6/7 
f 19/4/7 18/1/7 26/2/7 
f 26/2/7 25/3/7 19/4/7 
s off
f 25/3/22 24/4/22 27/4/22 
f 27/4/22 30/3/22 25/3/22 
f 24/3/23 31/2/23 28/1/23 
f 28/1/24 27/4/24 24/3/24 
f 31/5/25 32/2/25 29/2/25 
f 29/2/25 28/1/25 31/5/25 
f 32/5/26 25/3/26 30/3/26 
f 30/3/27 29/2/27 32/5/27 
s 2
f 6/1/3 5/2/3 33/3/28 
f 33/3/28 34/4/28 6/1/3 
f 34/4/28 33/3/28 18/5/16 
f 18/5/16 17/6/16 34/4/28 
s 4
f 15/6/29 35/4/30 36/3/29 
f 36/3/29 16/5/29 15/6/29 
f 37/4/31 38/1/31 39/2/31 
f 39/2/31 40/3/31 37/4/31 
s 8
f 6/6/6 34/4/6 35/3/6 
f 35/3/6 15/5/6 6/6/6 
f 34/4/6 17/1/6 23/2/6 
f 23/2/6 35/3/6 34/4/6 
s 32
f 18/6/7 33/4/7 36/3/8 
f 36/3/8 26/5/7 18/6/7 
f 33/4/7 5/1/7 16/2/7 
f 16/2/7 36/3/8 33/4/7 
s off
f 36/3/32 35/4/32 37/4/32 
f 37/4/32 40/3/32 36/3/32 
f 35/3/33 23/2/33 38/1/33 
f 38/1/34 37/4/34 35/3/34 
f 23/5/35 26/2/35 39/2/35 
f 39/2/35 38/1/35 23/5/35 
f 26/5/36 36/3/36 40/3/36 
f 40/3/37 39/2/37 26/5/37 
s 2
f 22/1/18 21/2/18 41/3/38 
f 41/3/38 42/4/38 22/1/18 
f 42/4/38 41/3/38 43/5/39 
f 43/5/39 44/6/39 42/4/38 
s 4
f 31/6/40 45/4/40 46/3/40 
f 46/3/40 32/5/40 31/6/40 
f 47/4/41 48/1/41 49/2/41 
f 49/2/41 50/3/41 47/4/41 
s 8
f 22/6/6 42/4/6 45/3/6 
f 45/3/6 31/5/6 22/6/6 
f 42/4/6 44/1/6 51/2/6 
f 51/2/6 45/3/6 42/4/6 
s 32
f 43/6/42 41/4/7 46/3/7 
f 46/3/7 52/5/7 43/6/42 
f 41/4/7 21/1/7 32/2/7 
f 32/2/7 46/3/7 41/4/7 
s off
f 46/3/43 45/4/43 47/4/43 
f 47/4/43 50/3/43 46/3/43 
f 45/3/44 51/2/44 48/1/44 
f 48/1/45 47/4/45 45/3/45 
f 51/5/46 52/2/46 49/2/46 
f 49/2/46 48/1/46 51/5/46 
f 52/5/47 46/3/47 50/3/47 
f 50/3/48 49/2/48 52/5/48 
s 2
f 53/1/49 54/2/49 55/3/50 
f 55/3/50 56/4/50 53/1/49 
f 56/4/50 55/3/50 57/5/51 
f 57/5/51 58/6/51 56/4/50 
s 4
f 59/6/52 60/4/52 61/3/52 
f 61/3/52 62/5/52 59/6/52 
f 63/4/53 64/1/53 65/2/53 
f 65/2/53 66/3/53 63/4/53 
s 8
f 53/6/6 56/4/6 60/3/6 
f 60/3/6 59/5/6 53/6/6 
f 56/4/6 58/1/6 67/2/6 
f 67/2/6 60/3/6 56/4/6 
s 32
f 57/6/42 55/4/42 61/3/7 
f 61/3/7 68/5/42 57/6/42 
f 55/4/42 54/1/42 62/2/42 
f 62/2/42 61/3/7 55/4/42 
s off
f 61/3/54 60/4/54 63/4/54 
f 63/4/54 66/3/54 61/3/54 
f 60/3/55 67/2/55 64/1/55 
f 64/1/56 63/4/56 60/3/56 
f 67/5/57 68/2/57 65/2/57 
f 65/2/57 64/1/57 67/5/57 
f 68/5/58 61/3/58 66/3/58 
f 66/3/59 65/2/59 68/5/59 
s 2
f 44/1/39 43/2/39 69/3/60 
f 69/3/60 70/4/60 44/1/39 
f 70/4/60 69/3/60 54/5/49 
f 54/5/49 53/6/49 70/4/60 
s 4
f 51/6/61 71/4/61 72/3/61 
f 72/3/61 52/5/61 51/6/61 
f 73/4/62 74/1/62 75/2/62 
f 75/2/62 76/3/62 73/4/62 
s 8
f 44/6/6 70/4/6 71/3/6 
f 71/3/6 51/5/6 44/6/6 
f 70/4/6 53/1/6 59/2/6 
f 59/2/6 71/3/6 70/4/6 
s 32
f 54/6/42 69/4/7 72/3/7 
f 72/3/7 62/5/42 54/6/42 
f 69/4/7 43/1/42 52/2/7 
f 52/2/7 72/3/7 69/4/7 
s off
f 72/3/63 71/4/63 73/4/63 
f 73/4/63 76/3/63 72/3/63 
f 71/3/64 59/2/64 74/1/64 
f 74/1/65 73/4/65 71/3/65 
f 59/5/66 62/2/66 75/2/66 
f 75/2/66 74/1/66 59/5/66 
f 62/5/67 72/3/67 76/3/67 
f 76/3/68 75/2/68 62/5/68 
s 2
f 58/1/51 57/2/51 77/3/69 
f 77/3/69 78/4/69 58/1/51 
f 78/4/69 77/3/69 79/5/70 
f 79/5/70 80/6/70 78/4/69 
s 4
f 67/6/71 81/4/71 82/3/71 
f 82/3/71 68/5/71 67/6/71 
f 83/4/72 84/1/72 85/2/72 
f 85/2/72 86/3/72 83/4/72 
s 8
f 58/6/6 78/4/6 81/3/6 
f 81/3/6 67/5/6 58/6/6 
f 78/4/6 80/1/6 87/2/6 
f 87/2/6 81/3/6 78/4/6 
s 32
f 79/6/42 77/4/42 82/3/42 
f 82/3/42 88/5/42 79/6/42 
f 77/4/42 57/1/42 68/2/42 
f 68/2/42 82/3/42 77/4/42 
s off
f 82/3/73 81/4/73 83/4/73 
f 83/4/73 86/3/73 82/3/73 
f 81/3/74 87/2/74 84/1/74 
f 84/1/75 83/4/75 81/3/75 
f 87/5/76 88/2/76 85/2/76 
f 85/2/76 84/1/76 87/5/76 
f 88/5/77 82/3/77 86/3/77 
f 86/3/78 85/2/78 88/5/78 
s 2
f 89/1/79 90/2/79 91/3/80 
f 91/3/80 92/4/80 89/1/79 
f 92/4/80 91/3/80 93/5/81 
f 93/5/81 94/6/81 92/4/80 
s 4
f 95/6/82 96/4/83 97/3/82 
f 97/3/82 98/5/82 95/6/82 
f 99/4/84 100/1/84 101/2/84 
f 101/2/84 102/3/84 99/4/84 
s 8
f 89/6/6 92/4/6 96/3/6 
f 96/3/6 95/5/6 89/6/6 
f 92/4/6 94/1/6 103/2/6 
f 103/2/6 96/3/6 92/4/6 
s 32
f 93/6/85 91/4/42 97/3/42 
f 97/3/42 104/5/85 93/6/85 
f 91/4/42 90/1/85 98/2/42 
f 98/2/42 97/3/42 91/4/42 
s off
f 97/3/86 96/4/86 99/4/86 
f 99/4/86 102/3/86 97/3/86 
f 96/3/87 103/2/87 100/1/87 
f 100/1/88 99/4/88 96/3/88 
f 103/5/89 104/2/89 101/2/89 
f 101/2/89 100/1/89 103/5/89 
f 104/5/90 97/3/90 102/3/90 
f 102/3/91 101/2/91 104/5/91 
s 2
f 80/1/70 79/2/70 105/3/92 
f 105/3/92 106/4/92 80/1/70 
f 106/4/92 105/3/92 90/5/79 
f 90/5/79 89/6/79 106/4/92 
s 4
f 87/6/93 107/4/93 108/3/93 
f 108/3/93 88/5/93 87/6/93 
f 109/4/94 110/1/94 111/2/94 
f 111/2/94 112/3/94 109/4/94 
s 8
f 80/6/6 106/4/6 107/3/6 
f 107/3/6 87/5/6 80/6/6 
f 106/4/6 89/1/6 95/2/6 
f 95/2/6 107/3/6 106/4/6 
s 32
f 90/6/85 105/4/42 108/3/42 
f 108/3/42 98/5/42 90/6/85 
f 105/4/42 79/1/42 88/2/42 
f 88/2/42 108/3/42 105/4/42 
s off
f 108/3/95 107/4/95 109/4/95 
f 109/4/95 112/3/95 108/3/95 
f 107/3/96 95/2/96 110/1/96 
f 110/1/97 109/4/97 107/3/97 
f 95/5/98 98/2/98 111/2/98 
f 111/2/99 110/1/99 95/5/99 
f 98/5/100 108/3/100 112/3/100 
f 112/3/101 111/2/101 98/5/101 
s 2
f 94/1/81 93/2/81 113/3/102 
f 113/3/102 114/4/102 94/1/81 
f 114/4/102 113/3/102 115/5/103 
f 115/5/103 116/6/103 114/4/102 
s 4
f 103/6/104 117/4/104 118/3/104 
f 118/3/104 104/5/104 103/6/104 
f 119/4/105 120/1/105 121/2/105 
f 121/2/105 122/3/105 119/4/105 
s 8
f 94/6/6 114/4/6 117/3/6 
f 117/3/6 103/5/6 94/6/6 
f 114/4/6 116/1/6 123/2/6 
f 123/2/6 117/3/6 114/4/6 
s 32
f 115/6/85 113/4/85 118/3/42 
f 118/3/42 124/5/85 115/6/85 
f 113/4/85 93/1/85 104/2/85 
f 104/2/85 118/3/42 113/4/85 
s off
f 118/3/106 117/4/106 119/4/106 
f 119/4/106 122/3/106 118/3/106 
f 117/3/107 123/2/107 120/1/107 
f 120/1/108 119/4/108 117/3/108 
f 123/5/109 124/2/109 121/2/109 
f 121/2/109 120/1/109 123/5/109 
f 124/5/110 118/3/110 122/3/110 
f 122/3/111 121/2/111 124/5/111 
s 2
f 125/1/112 126/2/112 127/3/113 
f 127/3/113 128/4/113 125/1/112 
f 128/4/113 127/3/113 129/5/114 
f 129/5/114 130/6/114 128/4/113 
s 4
f 131/6/115 132/4/115 133/3/115 
f 133/3/115 134/5/115 131/6/115 
f 135/4/116 136/1/116 137/2/116 
f 137/2/116 138/3/116 135/4/116 
s 8
f 125/6/6 128/4/6 132/3/6 
f 132/3/6 131/5/6 125/6/6 
f 128/4/6 130/1/6 139/2/6 
f 139/2/6 132/3/6 128/4/6 
s 32
f 129/6/8 127/4/85 133/3/85 
f 133/3/85 140/5/85 129/6/8 
f 127/4/85 126/1/85 134/2/85 
f 134/2/85 133/3/85 127/4/85 
s off
f 133/3/117 132/4/117 135/4/117 
f 135/4/117 138/3/117 133/3/117 
f 132/3/118 139/2/118 136/1/118 
f 136/1/119 135/4/119 132/3/119 
f 139/5/120 140/2/120 137/2/120 
f 137/2/120 136/1/120 139/5/120 
f 140/5/121 133/3/121 138/3/121 
f 138/3/122 137/2/122 140/5/122 
s 2
f 116/1/103 115/2/103 141/3/123 
f 141/3/123 142/4/123 116/1/103 
f 142/4/123 141/3/123 126/5/112 
f 126/5/112 125/6/112 142/4/123 
s 4
f 123/6/124 143/4/124 144/3/124 
f 144/3/124 124/5/124 123/6/124 
f 145/4/125 146/1/125 147/2/125 
f 147/2/125 148/3/125 145/4/125 
s 8
f 116/6/6 142/4/6 143/3/6 
f 143/3/6 123/5/6 116/6/6 
f 142/4/6 125/1/6 131/2/6 
f 131/2/6 143/3/6 142/4/6 
s 32
f 126/6/85 141/4/85 144/3/85 
f 144/3/85 134/5/85 126/6/85 
f 141/4/85 115/1/85 124/2/85 
f 124/2/85 144/3/85 141/4/85 
s off
f 144/3/126 143/4/126 145/4/126 
f 145/4/126 148/3/126 144/3/126 
f 143/3/127 131/2/127 146/1/127 
f 146/1/128 145/4/128 143/3/128 
f 131/5/129 134/2/129 147/2/129 
f 147/2/129 146/1/129 131/5/129 
f 134/5/130 144/3/130 148/3/130 
f 148/3/131 147/2/131 134/5/131 
s 2
f 130/1/114 129/2/114 149/3/132 
f 149/3/132 150/4/132 130/1/114 
f 150/4/132 149/3/132 151/5/133 
f 151/5/133 152/6/133 150/4/132 
s 4
f 139/6/134 153/4/134 154/3/134 
f 154/3/134 140/5/134 139/6/134 
f 155/4/135 156/1/135 157/2/135 
f 157/2/135 158/3/135 155/4/135 
s 8
f 130/6/6 150/4/6 153/3/6 
f 153/3/6 139/5/6 130/6/6 
f 150/4/6 152/1/6 159/2/6 
f 159/2/6 153/3/6 150/4/6 
s 32
f 151/6/8 149/4/85 154/3/85 
f 154/3/85 160/5/8 151/6/8 
f 149/4/85 129/1/8 140/2/85 
f 140/2/85 154/3/85 149/4/85 
s off
f 154/3/136 153/4/136 155/4/136 
f 155/4/136 158/3/136 154/3/136 
f 153/3/137 159/2/137 156/1/137 
f 156/1/138 155/4/138 153/3/138 
f 159/5/139 160/2/139 157/2/139 
f 157/2/139 156/1/139 159/5/139 
f 160/5/140 154/3/140 158/3/140 
f 158/3/141 157/2/141 160/5/141 
s 2
f 161/1/142 162/2/142 163/3/143 
f 163/3/143 164/4/143 161/1/142 
f 164/4/143 163/3/143 165/5/144 
f 165/5/144 166/6/144 164/4/143 
s 4
f 167/6/145 168/4/146 169/3/145 
f 169/3/145 170/5/145 167/6/145 
f 171/4/147 172/1/147 173/2/147 
f 173/2/147 174/3/147 171/4/147 
s 8
f 161/6/6 164/4/6 168/3/6 
f 168/3/6 167/5/6 161/6/6 
f 164/4/6 166/1/6 175/2/6 
f 175/2/6 168/3/6 164/4/6 
s 32
f 165/6/8 163/4/8 169/3/8 
f 169/3/8 176/5/8 165/6/8 
f 163/4/8 162/1/8 170/2/8 
f 170/2/8 169/3/8 163/4/8 
s off
f 169/3/148 168/4/148 171/4/148 
f 171/4/148 174/3/148 169/3/148 
f 168/3/149 175/2/149 172/1/149 
f 172/1/150 171/4/150 168/3/150 
f 175/5/151 176/2/151 173/2/151 
f 173/2/151 172/1/151 175/5/151 
f 176/5/152 169/3/152 174/3/152 
f 174/3/153 173/2/153 176/5/153 
s 2
f 152/1/133 151/2/133 177/3/154 
f 177/3/154 178/4/154 152/1/133 
f 178/4/154 177/3/154 162/5/142 
f 162/5/142 161/6/142 178/4/154 
s 4
f 159/6/155 179/4/155 180/3/155 
f 180/3/155 160/5/155 159/6/155 
f 181/4/156 182/1/156 183/2/156 
f 183/2/156 184/3/156 181/4/156 
s 8
f 152/6/6 178/4/6 179/3/6 
f 179/3/6 159/5/6 152/6/6 
f 178/4/6 161/1/6 167/2/6 
f 167/2/6 179/3/6 178/4/6 
s 32
f 162/6/8 177/4/8 180/3/85 
f 180/3/85 170/5/8 162/6/8 
f 177/4/8 151/1/8 160/2/8 
f 160/2/8 180/3/85 177/4/8 
s off
f 180/3/157 179/4/157 181/4/157 
f 181/4/157 184/3/157 180/3/157 
f 179/3/158 167/2/158 182/1/158 
f 182/1/159 181/4/159 179/3/159 
f 167/5/160 170/2/160 183/2/160 
f 183/2/161 182/1/161 167/5/161 
f 170/5/162 180/3/162 184/3/162 
f 184/3/163 183/2/163 170/5/163 
s 2
f 166/1/144 165/2/144 185/3/164 
f 185/3/164 186/4/164 166/1/144 
f 186/4/164 185/3/164 2/5/165 
f 2/5/165 1/6/165 186/4/164 
s 4
f 175/6/166 187/4/166 188/3/166 
f 188/3/166 176/5/166 175/6/166 
f 189/4/167 190/1/167 191/2/167 
f 191/2/167 192/3/167 189/4/167 
s 8
f 166/6/6 186/4/6 187/3/6 
f 187/3/6 175/5/6 166/6/6 
f 186/4/6 1/1/6 7/2/6 
f 7/2/6 187/3/6 186/4/6 
s 32
f 2/6/7 185/4/8 188/3/8 
f 188/3/8 10/5/7 2/6/7 
f 185/4/8 165/1/8 176/2/8 
f 176/2/8 188/3/8 185/4/8 
s off
f 188/3/168 187/4/168 189/4/168 
f 189/4/168 192/3/168 188/3/168 
f 187/3/169 7/2/169 190/1/169 
f 190/1/170 189/4/170 187/3/170 
f 7/5/171 10/2/171 191/2/171 
f 191/2/172 190/1/172 7/5/172 
f 10/5/173 188/3/173 192/3/173 
f 192/3/174 191/2/174 10/5/174 
# 384 faces

