# 3ds Max Wavefront OBJ Exporter v0.97b - (c)2007 guruware
# File Created: 11.05.2011 15:38:06

mtllib WallStraight.mtl

#
# object Box02
#

v  -1.450000 1.850000 -1.500000
v  -1.450000 1.850000 1.500000
v  -1.450000 1.800000 1.500000
v  -1.450000 1.800000 -1.500000
v  -1.500000 2.000000 -1.500000
v  -1.500000 2.000000 1.500000
v  -1.450000 2.000000 1.500000
v  -1.450000 2.000000 -1.500000
v  -1.500000 1.800000 1.500000
v  -1.450000 1.900000 1.500000
v  -1.450000 1.950000 1.500000
v  -1.500000 1.800000 -1.500000
v  -1.450000 1.950000 -1.500000
v  -1.450000 1.900000 -1.500000
v  -1.400000 1.900000 -1.500000
v  -1.400000 1.900000 1.500000
v  -1.400000 1.850000 1.500000
v  -1.400000 1.850000 -1.500000
v  -1.350000 1.950000 -1.500000
v  -1.350000 1.950000 1.500000
v  -1.350000 1.900000 1.500000
v  -1.350000 1.900000 -1.500000
v  -1.300000 2.000000 -1.500000
v  -1.300000 2.000000 1.500000
v  -1.300000 1.950000 1.500000
v  -1.300000 1.950000 -1.500000
v  -1.400000 2.000000 1.500000
v  -1.400000 2.000000 -1.500000
v  -1.400000 1.950000 1.500000
v  -1.400000 1.950000 -1.500000
v  -1.350000 2.000000 -1.500000
v  -1.350000 2.000000 1.500000
# 32 vertices

vn 1.000000 0.000000 -0.000000
vn 0.000000 1.000000 -0.000000
vn 0.000000 0.000000 1.000000
vn 0.000000 -1.000000 -0.000000
vn 0.000000 0.000000 -1.000000
# 5 vertex normals

vt 0.000000 0.962500 0.000000
vt 1.000000 0.962500 0.000000
vt 1.000000 0.950000 0.000000
vt 0.000000 0.950000 0.000000
vt 0.000000 1.000000 0.000000
vt 0.000000 0.000000 0.000000
vt 1.000000 1.000000 0.000000
vt 1.000000 0.975000 0.000000
vt 1.000000 0.987500 0.000000
vt 0.000000 0.987500 0.000000
vt 0.000000 0.975000 0.000000
# 11 texture coords

g Box02
usemtl Marble_Light
s 64
f 1/1/1 2/2/1 3/3/1 
f 3/3/1 4/4/1 1/1/1 
s off
f 5/5/2 6/6/2 7/7/2 
f 7/7/2 8/5/2 5/5/2 
f 6/7/3 9/3/3 3/3/3 
f 6/7/3 3/3/3 2/2/3 
f 6/7/3 2/2/3 10/8/3 
f 6/7/3 10/8/3 11/9/3 
f 6/7/3 11/9/3 7/7/3 
f 9/3/4 12/4/4 4/4/4 
f 4/4/4 3/3/4 9/3/4 
f 12/4/5 5/5/5 8/5/5 
f 12/4/5 8/5/5 13/10/5 
f 12/4/5 13/10/5 14/11/5 
f 12/4/5 14/11/5 1/1/5 
f 12/4/5 1/1/5 4/4/5 
s 64
f 15/11/1 16/8/1 17/2/1 
f 17/2/1 18/1/1 15/11/1 
f 19/10/1 20/9/1 21/8/1 
f 21/8/1 22/11/1 19/10/1 
f 23/5/1 24/7/1 25/9/1 
f 25/9/1 26/10/1 23/5/1 
s off
f 8/5/2 7/7/2 27/7/2 
f 27/7/2 28/5/2 8/5/2 
f 7/7/3 11/9/3 29/9/3 
f 29/9/3 27/7/3 7/7/3 
f 11/9/3 10/8/3 16/8/3 
f 16/8/3 29/9/3 11/9/3 
f 10/8/3 2/2/3 17/2/3 
f 17/2/3 16/8/3 10/8/3 
f 2/2/4 1/1/4 18/1/4 
f 18/1/4 17/2/4 2/2/4 
f 1/1/5 14/11/5 15/11/5 
f 15/11/5 18/1/5 1/1/5 
f 14/11/5 13/10/5 30/10/5 
f 30/10/5 15/11/5 14/11/5 
f 13/10/5 8/5/5 28/5/5 
f 28/5/5 30/10/5 13/10/5 
f 16/8/4 15/11/4 22/11/4 
f 22/11/4 21/8/4 16/8/4 
f 15/11/5 30/10/5 19/10/5 
f 19/10/5 22/11/5 15/11/5 
f 30/10/5 28/5/5 31/5/5 
f 31/5/5 19/10/5 30/10/5 
f 28/5/2 27/7/2 32/7/2 
f 32/7/2 31/5/2 28/5/2 
f 27/7/3 29/9/3 20/9/3 
f 20/9/3 32/7/3 27/7/3 
f 29/9/3 16/8/3 21/8/3 
f 21/8/3 20/9/3 29/9/3 
f 20/9/4 19/10/4 26/10/4 
f 26/10/4 25/9/4 20/9/4 
f 19/10/5 31/5/5 23/5/5 
f 23/5/5 26/10/5 19/10/5 
f 31/5/2 32/7/2 24/7/2 
f 24/7/2 23/5/2 31/5/2 
f 32/7/3 20/9/3 25/9/3 
f 25/9/3 24/7/3 32/7/3 
# 58 faces

#
# object Cylinder01
#

v  -1.796502 -1.255043 -1.500000
v  -1.756779 -1.255043 -1.351749
v  -1.756779 -0.510086 -1.351749
v  -1.796502 -0.510086 -1.500000
v  -1.648251 -1.255043 -1.243221
v  -1.648251 -0.510086 -1.243221
v  -1.500000 -1.255043 -1.203498
v  -1.500000 -0.510086 -1.203498
v  -1.351749 -1.255043 -1.243221
v  -1.351749 -0.510086 -1.243221
v  -1.243222 -1.255043 -1.351749
v  -1.243221 -0.510086 -1.351749
v  -1.203498 -1.255043 -1.500000
v  -1.203498 -0.510086 -1.500000
v  -1.756779 -0.100000 -1.351749
v  -1.796502 -0.100000 -1.500000
v  -1.648251 -0.100000 -1.243221
v  -1.500000 -0.100000 -1.203498
v  -1.351749 -0.100000 -1.243221
v  -1.243222 -0.100000 -1.351749
v  -1.203498 -0.100000 -1.500000
v  -1.796502 0.234870 -1.500000
v  -1.756779 0.234870 -1.351749
v  -1.756779 0.979827 -1.351749
v  -1.796502 0.979827 -1.500000
v  -1.648251 0.234870 -1.243221
v  -1.648251 0.979827 -1.243221
v  -1.500000 0.234870 -1.203498
v  -1.500000 0.979827 -1.203498
v  -1.351749 0.234870 -1.243221
v  -1.351749 0.979827 -1.243221
v  -1.243222 0.234870 -1.351749
v  -1.243222 0.979827 -1.351749
v  -1.203498 0.234870 -1.500000
v  -1.203498 0.979827 -1.500000
v  -1.756779 1.800000 -1.351749
v  -1.796502 1.800000 -1.500000
v  -1.648251 1.800000 -1.243221
v  -1.500000 1.800000 -1.203498
v  -1.351749 1.800000 -1.243221
v  -1.243222 1.800000 -1.351749
v  -1.203498 1.800000 -1.500000
v  -1.796502 -1.800000 -1.500000
v  -1.756779 -1.800000 -1.351749
v  -1.648251 -1.800000 -1.243221
v  -1.500000 -1.800000 -1.203498
v  -1.351749 -1.800000 -1.243221
v  -1.243222 -1.800000 -1.351749
v  -1.203498 -1.800000 -1.500000
v  -1.796502 0.100000 -1.500000
v  -1.756779 0.100000 -1.351749
v  -1.648251 0.100000 -1.243221
v  -1.500000 0.100000 -1.203498
v  -1.351749 0.100000 -1.243221
v  -1.243222 0.100000 -1.351749
v  -1.203498 0.100000 -1.500000
# 56 vertices

vn -0.965926 -0.000000 0.258819
vn -0.866026 -0.000000 0.500000
vn -0.500000 -0.000000 0.866025
vn -0.500000 0.000000 0.866025
vn -0.000000 -0.000000 1.000000
vn 0.500000 -0.000000 0.866026
vn 0.499999 0.000000 0.866026
vn 0.866025 -0.000000 0.500000
vn 0.866025 0.000000 0.500000
vn 0.965926 -0.000000 0.258819
vn 0.965926 0.000000 0.258819
vn -0.866026 0.000000 0.500000
vn -0.965926 0.000000 0.258819
vn -0.000000 0.000000 1.000000
vn 0.500000 0.000000 0.866026
vn 0.866025 0.000000 0.500001
vn 0.965926 0.000000 0.258820
# 17 vertex normals

vt 0.500000 0.455176 0.999001
vt 0.666667 0.455176 0.999001
vt 0.666667 1.075353 0.999001
vt 0.500000 1.075353 0.999001
vt 0.833333 0.455176 0.999001
vt 0.833333 1.075353 0.999001
vt 1.000000 0.455176 0.999001
vt 1.000000 1.075353 0.999001
vt 1.166666 0.455176 0.999001
vt 1.166666 1.075353 0.999001
vt 1.333333 0.455176 0.999001
vt 1.333333 1.075353 0.999001
vt 1.500000 0.455176 0.999001
vt 1.500000 1.075353 0.999001
vt 0.666667 1.416750 0.999001
vt 0.500000 1.416750 0.999001
vt 0.833333 1.416750 0.999001
vt 1.000000 1.416750 0.999001
vt 1.166666 1.416750 0.999001
vt 1.333333 1.416750 0.999001
vt 1.500000 1.416750 0.999001
vt 0.500000 1.695530 0.999001
vt 0.666667 1.695530 0.999001
vt 0.666667 2.315707 0.999001
vt 0.500000 2.315707 0.999001
vt 0.833333 1.695530 0.999001
vt 0.833333 2.315707 0.999001
vt 1.000000 1.695530 0.999001
vt 1.000000 2.315707 0.999001
vt 1.166666 1.695530 0.999001
vt 1.166666 2.315707 0.999001
vt 1.333333 1.695530 0.999001
vt 1.333333 2.315707 0.999001
vt 1.500000 1.695530 0.999001
vt 1.500000 2.315707 0.999001
vt 0.666667 2.998502 0.999001
vt 0.500000 2.998502 0.999001
vt 0.833333 2.998502 0.999001
vt 1.000000 2.998502 0.999001
vt 1.166666 2.998502 0.999001
vt 1.333333 2.998502 0.999001
vt 1.500000 2.998502 0.999001
vt 0.500000 0.001499 0.999001
vt 0.666667 0.001499 0.999001
vt 0.833333 0.001499 0.999001
vt 1.000000 0.001499 0.999001
vt 1.166666 0.001499 0.999001
vt 1.333333 0.001499 0.999001
vt 1.500000 0.001499 0.999001
vt 0.500000 1.583250 0.999001
vt 0.666667 1.583250 0.999001
vt 0.833333 1.583250 0.999001
vt 1.000000 1.583250 0.999001
vt 1.166666 1.583250 0.999001
vt 1.333333 1.583250 0.999001
vt 1.500000 1.583250 0.999001
# 56 texture coords

g Cylinder01
usemtl Tiles01
s 8
f 33/12/6 34/13/7 35/14/7 
f 35/14/7 36/15/6 33/12/6 
f 34/13/7 37/16/8 38/17/9 
f 38/17/9 35/14/7 34/13/7 
f 37/16/8 39/18/10 40/19/10 
f 40/19/10 38/17/9 37/16/8 
f 39/18/10 41/20/11 42/21/12 
f 42/21/12 40/19/10 39/18/10 
f 41/20/11 43/22/13 44/23/14 
f 44/23/14 42/21/12 41/20/11 
f 43/22/13 45/24/15 46/25/16 
f 46/25/16 44/23/14 43/22/13 
f 35/14/7 47/26/17 48/27/18 
f 48/27/18 36/15/6 35/14/7 
f 38/17/9 49/28/9 47/26/17 
f 47/26/17 35/14/7 38/17/9 
f 40/19/10 50/29/19 49/28/9 
f 49/28/9 38/17/9 40/19/10 
f 42/21/12 51/30/20 50/29/19 
f 50/29/19 40/19/10 42/21/12 
f 44/23/14 52/31/21 51/30/20 
f 51/30/20 42/21/12 44/23/14 
f 46/25/16 53/32/22 52/31/21 
f 52/31/21 44/23/14 46/25/16 
f 54/33/18 55/34/17 56/35/17 
f 56/35/17 57/36/18 54/33/18 
f 55/34/17 58/37/9 59/38/9 
f 59/38/9 56/35/17 55/34/17 
f 58/37/9 60/39/19 61/40/19 
f 61/40/19 59/38/9 58/37/9 
f 60/39/19 62/41/12 63/42/12 
f 63/42/12 61/40/19 60/39/19 
f 62/41/12 64/43/14 65/44/14 
f 65/44/14 63/42/12 62/41/12 
f 64/43/14 66/45/16 67/46/16 
f 67/46/16 65/44/14 64/43/14 
f 56/35/17 68/47/17 69/48/18 
f 69/48/18 57/36/18 56/35/17 
f 59/38/9 70/49/9 68/47/17 
f 68/47/17 56/35/17 59/38/9 
f 61/40/19 71/50/19 70/49/9 
f 70/49/9 59/38/9 61/40/19 
f 63/42/12 72/51/12 71/50/19 
f 71/50/19 61/40/19 63/42/12 
f 65/44/14 73/52/21 72/51/12 
f 72/51/12 63/42/12 65/44/14 
f 67/46/16 74/53/16 73/52/21 
f 73/52/21 65/44/14 67/46/16 
f 34/13/7 33/12/6 75/54/18 
f 75/54/18 76/55/17 34/13/7 
f 37/16/8 34/13/7 76/55/17 
f 76/55/17 77/56/9 37/16/8 
f 39/18/10 37/16/8 77/56/9 
f 77/56/9 78/57/19 39/18/10 
f 41/20/11 39/18/10 78/57/19 
f 78/57/19 79/58/20 41/20/11 
f 43/22/13 41/20/11 79/58/20 
f 79/58/20 80/59/14 43/22/13 
f 45/24/15 43/22/13 80/59/14 
f 80/59/14 81/60/16 45/24/15 
f 55/34/17 54/33/18 82/61/18 
f 82/61/18 83/62/17 55/34/17 
f 58/37/9 55/34/17 83/62/17 
f 83/62/17 84/63/9 58/37/9 
f 60/39/19 58/37/9 84/63/9 
f 84/63/9 85/64/19 60/39/19 
f 62/41/12 60/39/19 85/64/19 
f 85/64/19 86/65/12 62/41/12 
f 64/43/14 62/41/12 86/65/12 
f 86/65/12 87/66/14 64/43/14 
f 66/45/16 64/43/14 87/66/14 
f 87/66/14 88/67/16 66/45/16 
# 72 faces

#
# object Box03
#

v  -1.556639 -2.000000 1.500000
v  -1.556639 -2.000000 -1.500000
v  -1.356639 -2.000000 -1.500000
v  -1.356639 -2.000000 1.500000
v  -1.356639 -1.800000 1.500000
v  -1.556639 -1.800000 1.500000
v  -1.306639 -2.000000 -1.500000
v  -1.306639 -1.800000 -1.500000
v  -1.306639 -1.800000 1.500000
v  -1.306639 -2.000000 1.500000
v  -1.556639 -1.800000 -1.500000
v  -1.356639 -1.800000 -1.500000
v  -1.356639 -0.500000 1.500000
v  -1.556639 -0.500000 1.500000
v  -1.556639 -0.500000 -1.500000
v  -1.356639 -0.500000 -1.500000
# 16 vertices

vn 0.000000 -1.000000 -0.000000
vn 0.000000 0.000000 1.000000
vn 1.000000 0.000000 -0.000000
vn 0.000000 0.000000 -1.000000
vn -1.000000 0.000000 -0.000000
vn 0.000000 1.000000 -0.000000
# 6 vertex normals

vt 1.000000 0.000000 0.000000
vt 1.000000 1.000000 0.000000
vt 0.000000 1.000000 0.000000
vt 0.000000 0.000000 0.000000
vt 1.000000 0.133333 0.000000
vt 0.000000 0.133333 0.000000
# 6 texture coords

g Box03
usemtl Marble_Light
s 2
f 89/68/23 90/69/23 91/70/23 
f 91/70/23 92/71/23 89/68/23 
s 8
f 92/68/24 93/72/24 94/73/24 
f 94/73/24 89/71/24 92/68/24 
s 16
f 95/68/25 96/72/25 97/73/25 
f 97/73/25 98/71/25 95/68/25 
s 32
f 90/68/26 99/72/26 100/73/26 
f 100/73/26 91/71/26 90/68/26 
s 64
f 89/68/27 94/72/27 99/73/27 
f 99/73/27 90/71/27 89/68/27 
s 8
f 101/69/24 102/70/24 94/73/24 
f 94/73/24 93/72/24 101/69/24 
s 32
f 103/69/26 104/70/26 100/73/26 
f 100/73/26 99/72/26 103/69/26 
s off
f 92/71/23 91/70/23 95/68/23 
f 95/68/23 98/71/23 92/71/23 
f 91/71/26 100/73/26 96/72/26 
f 96/72/26 95/68/26 91/71/26 
f 100/72/28 93/73/28 97/73/28 
f 97/73/28 96/72/28 100/72/28 
f 93/72/24 92/68/24 98/71/24 
f 98/71/24 97/73/24 93/72/24 
# 22 faces

#
# object Cylinder03
#

v  -1.457607 -0.417979 -1.505356
v  -1.519831 -0.432876 -1.505356
v  -1.519830 -0.432875 1.494644
v  -1.457606 -0.417978 1.494644
v  -1.565382 -0.473575 -1.505356
v  -1.565382 -0.473574 1.494644
v  -1.582055 -0.529171 -1.505356
v  -1.582054 -0.529170 1.494644
v  -1.565382 -0.584767 -1.505356
v  -1.565382 -0.584766 1.494644
v  -1.519831 -0.625466 -1.505356
v  -1.519830 -0.625465 1.494644
v  -1.457607 -0.640363 -1.505356
v  -1.457606 -0.640362 1.494644
v  -1.395383 -0.625466 -1.505356
v  -1.395382 -0.625465 1.494644
v  -1.349831 -0.584767 -1.505356
v  -1.349830 -0.584766 1.494644
v  -1.333158 -0.529171 -1.505356
v  -1.333157 -0.529170 1.494644
v  -1.349831 -0.473575 -1.505356
v  -1.349830 -0.473574 1.494644
v  -1.395382 -0.432876 -1.505356
v  -1.395382 -0.432875 1.494644
# 24 vertices

vn 0.000000 1.000000 -0.000000
vn -0.500000 0.866025 -0.000000
vn -0.866025 0.500000 0.000000
vn -1.000000 -0.000000 0.000000
vn -0.866025 -0.500000 0.000000
vn -0.500000 -0.866025 0.000000
vn -0.000000 -1.000000 0.000000
vn 0.500000 -0.866026 0.000000
vn 0.866025 -0.500000 -0.000000
vn 1.000000 -0.000000 -0.000000
vn 0.866026 0.500000 -0.000000
vn 0.866026 0.499999 -0.000000
vn 0.500000 0.866025 -0.000000
vn -0.000000 -0.000000 -1.000000
vn 0.000000 0.000000 1.000000
# 15 vertex normals

vt 0.712500 0.001498 0.999001
vt 0.791667 0.001498 0.999001
vt 0.791667 2.998502 0.999001
vt 0.712500 2.998502 0.999001
vt 0.870833 0.001498 0.999001
vt 0.870833 2.998502 0.999001
vt 0.950000 0.001498 0.999001
vt 0.950000 2.998502 0.999001
vt 1.029167 0.001498 0.999001
vt 1.029167 2.998502 0.999001
vt 0.079167 0.001498 0.999001
vt 0.158333 0.001498 0.999001
vt 0.158333 2.998502 0.999001
vt 0.079167 2.998502 0.999001
vt 0.237500 0.001498 0.999001
vt 0.237500 2.998502 0.999001
vt 0.316667 0.001498 0.999001
vt 0.316667 2.998502 0.999001
vt 0.395833 0.001498 0.999001
vt 0.395833 2.998502 0.999001
vt 0.475000 0.001498 0.999001
vt 0.475000 2.998502 0.999001
vt 0.554167 0.001498 0.999001
vt 0.554167 2.998502 0.999001
vt 0.633333 0.001498 0.999001
vt 0.633333 2.998502 0.999001
vt -0.000000 0.001498 0.999001
vt -0.079167 0.001498 0.999001
vt -0.158333 0.001498 0.999001
vt -0.237500 0.001498 0.999001
vt -0.316667 0.001498 0.999001
vt 1.108333 2.998502 0.999001
vt 1.187500 2.998502 0.999001
vt 1.266667 2.998502 0.999001
vt 1.345833 2.998502 0.999001
vt 1.425000 2.998502 0.999001
vt 1.504167 2.998502 0.999001
vt 1.583333 2.998502 0.999001
vt 1.662500 2.998502 0.999001
# 39 texture coords

g Cylinder03
usemtl Marble_Light
s 8
f 105/74/29 106/75/30 107/76/30 
f 107/76/30 108/77/29 105/74/29 
f 106/75/30 109/78/31 110/79/31 
f 110/79/31 107/76/30 106/75/30 
f 109/78/31 111/80/32 112/81/32 
f 112/81/32 110/79/31 109/78/31 
f 111/80/32 113/82/33 114/83/33 
f 114/83/33 112/81/32 111/80/32 
f 113/84/33 115/85/34 116/86/34 
f 116/86/34 114/87/33 113/84/33 
f 115/85/34 117/88/35 118/89/35 
f 118/89/35 116/86/34 115/85/34 
f 117/88/35 119/90/36 120/91/36 
f 120/91/36 118/89/35 117/88/35 
f 119/90/36 121/92/37 122/93/37 
f 122/93/37 120/91/36 119/90/36 
f 121/92/37 123/94/38 124/95/38 
f 124/95/38 122/93/37 121/92/37 
f 123/94/38 125/96/39 126/97/40 
f 126/97/40 124/95/38 123/94/38 
f 125/96/39 127/98/41 128/99/41 
f 128/99/41 126/97/40 125/96/39 
f 127/98/41 105/74/29 108/77/29 
f 108/77/29 128/99/41 127/98/41 
s 1
f 125/96/42 123/94/42 121/92/42 
f 121/92/42 119/90/42 117/88/42 
f 117/88/42 115/85/42 113/84/42 
f 121/92/42 117/88/42 113/84/42 
f 113/84/42 111/100/42 109/101/42 
f 109/101/42 106/102/42 105/103/42 
f 113/84/42 109/101/42 105/103/42 
f 121/92/42 113/84/42 105/103/42 
f 125/96/42 121/92/42 105/103/42 
f 127/104/42 125/96/42 105/103/42 
f 107/76/43 110/79/43 112/81/43 
f 112/81/43 114/83/43 116/105/43 
f 116/105/43 118/106/43 120/107/43 
f 112/81/43 116/105/43 120/107/43 
f 120/107/43 122/108/43 124/109/43 
f 124/109/43 126/110/43 128/111/43 
f 120/107/43 124/109/43 128/111/43 
f 112/81/43 120/107/43 128/111/43 
f 107/76/43 112/81/43 128/111/43 
f 108/112/43 107/76/43 128/111/43 
# 44 faces

#
# object Object01
#

v  -1.500000 1.800000 -1.500000
v  -1.500000 1.800000 1.500000
v  -1.500000 -2.000000 1.500000
v  -1.500000 -2.000000 -1.500000
# 4 vertices

vn 1.000000 0.000000 -0.000000
# 1 vertex normals

vt 1.467535 1.766667 1.000000
vt -0.532465 1.766667 0.000000
vt -0.532465 -0.766667 0.000000
vt 1.467535 -0.766667 1.000000
# 4 texture coords

g Object01
usemtl Walls_Brick01
s 64
f 129/113/44 130/114/44 131/115/44 
f 131/115/44 132/116/44 129/113/44 
# 2 faces

#
# object Object02
#

v  -1.500000 -2.000000 1.500000
v  1.500000 -2.000000 1.500000
v  1.500000 -2.000000 -1.500000
v  -1.500000 -2.000000 -1.500000
# 4 vertices

vn 0.000000 1.000000 -0.000000
# 1 vertex normals

vt 0.000999 0.001000 1.000000
vt 1.999001 0.000999 1.000000
vt 1.999001 1.999001 1.000000
vt 0.001000 1.999001 1.000000
# 4 texture coords

g Object02
usemtl Tiles01
s 2
f 133/117/45 134/118/45 135/119/45 
f 135/119/45 136/120/45 133/117/45 
# 2 faces

#
# object Object03
#

v  -1.556639 -0.500000 1.500000
v  -1.356639 -0.500000 1.500000
v  -1.356639 -0.500000 -1.500000
v  -1.556639 -0.500000 -1.500000
v  -1.356639 -1.800000 1.500000
v  -1.356639 -1.800000 -1.500000
v  -1.556639 -1.800000 -1.500000
v  -1.556639 -1.800000 1.500000
# 8 vertices

vn 0.000000 1.000000 -0.000000
vn 1.000000 0.000000 -0.000000
vn -1.000000 0.000000 -0.000000
# 3 vertex normals

vt 0.000499 -0.549013 0.806487
vt 0.999497 -0.549013 0.806487
vt 0.999500 1.450987 0.806487
vt 0.000503 1.450987 0.806487
vt 1.450987 0.806487 0.999500
vt -0.549013 0.806487 0.999497
vt -0.549013 -0.060179 0.999497
vt 1.450987 -0.060179 0.999500
vt 1.549013 0.806487 0.000499
vt -0.450987 0.806487 0.000503
vt -0.450987 -0.060179 0.000503
vt 1.549013 -0.060179 0.000499
# 12 texture coords

g Object03
usemtl Walls_Brick01
s 4
f 137/121/46 138/122/46 139/123/46 
f 139/123/46 140/124/46 137/121/46 
s 16
f 139/125/47 138/126/47 141/127/47 
f 141/127/47 142/128/47 139/125/47 
s 64
f 137/129/48 140/130/48 143/131/48 
f 143/131/48 144/132/48 137/129/48 
# 6 faces

#
# object Object04
#

v  -1.500000 2.000000 1.500000
v  -1.500000 2.000000 -1.500000
v  1.500000 2.000000 -1.500000
v  1.500000 2.000000 1.500000
# 4 vertices

vn 0.000000 -1.000000 -0.000000
# 1 vertex normals

vt 0.000999 0.001000 1.000000
vt 0.001000 1.999001 1.000000
vt 1.999001 1.999001 1.000000
vt 1.999001 0.000999 1.000000
# 4 texture coords

g Object04
usemtl Tiles01
s 4
f 145/133/49 146/134/49 147/135/49 
f 147/135/49 148/136/49 145/133/49 
# 2 faces

#
# object Object05
#

v  -1.800080 -2.000000 -1.326749
v  -1.800080 -1.800000 -1.326749
v  -1.846502 -1.800000 -1.499999
v  -1.846502 -2.000000 -1.499999
v  -1.673251 -2.000000 -1.199920
v  -1.673251 -1.800000 -1.199920
v  -1.500000 -2.000000 -1.153498
v  -1.500000 -1.800000 -1.153498
v  -1.326749 -2.000000 -1.199920
v  -1.326749 -1.800000 -1.199920
v  -1.199920 -2.000000 -1.326749
v  -1.199920 -1.800000 -1.326749
v  -1.153498 -2.000000 -1.500000
v  -1.153498 -1.800000 -1.500000
v  -1.756779 -2.000000 -1.351749
v  -1.796502 -2.000000 -1.500000
v  -1.648251 -2.000000 -1.500000
v  -1.628389 -2.000000 -1.425874
v  -1.648251 -2.000000 -1.243221
v  -1.574126 -2.000000 -1.371611
v  -1.500000 -2.000000 -1.203498
v  -1.500000 -2.000000 -1.351749
v  -1.351749 -2.000000 -1.243221
v  -1.425874 -2.000000 -1.371611
v  -1.243222 -2.000000 -1.351749
v  -1.371611 -2.000000 -1.425874
v  -1.203498 -2.000000 -1.500000
v  -1.351749 -2.000000 -1.500000
v  -1.500000 -2.000000 -1.500000
v  -1.796502 1.999999 -1.500000
v  -1.756779 1.999999 -1.351749
v  -1.628389 1.999999 -1.425874
v  -1.648251 1.999999 -1.500000
v  -1.648251 1.999999 -1.243221
v  -1.574126 1.999999 -1.371611
v  -1.500000 1.999999 -1.203498
v  -1.500000 1.999999 -1.351749
v  -1.351749 1.999999 -1.243221
v  -1.425874 1.999999 -1.371611
v  -1.243222 1.999999 -1.351749
v  -1.371611 1.999999 -1.425874
v  -1.203498 1.999999 -1.500000
v  -1.351749 1.999999 -1.500000
v  -1.500000 2.000000 -1.500000
v  -1.203498 -1.800000 -1.500000
v  -1.243222 -1.800000 -1.351749
v  -1.351749 -1.800000 -1.243221
v  -1.500000 -1.800000 -1.203498
v  -1.648251 -1.800000 -1.243221
v  -1.756779 -1.800000 -1.351749
v  -1.796502 -1.800000 -1.500000
v  -1.800080 0.100000 -1.326749
v  -1.846502 0.100000 -1.500002
v  -1.846503 -0.100000 -1.499999
v  -1.800080 -0.100000 -1.326749
v  -1.673251 0.100000 -1.199920
v  -1.673251 -0.100000 -1.199920
v  -1.500000 0.100000 -1.153498
v  -1.500000 -0.100000 -1.153497
v  -1.326749 0.100000 -1.199920
v  -1.326749 -0.100000 -1.199920
v  -1.199920 0.100000 -1.326749
v  -1.199920 -0.100000 -1.326749
v  -1.153498 0.100000 -1.500000
v  -1.153497 -0.100000 -1.500000
v  -1.203498 0.100000 -1.500000
v  -1.243222 0.100000 -1.351749
v  -1.351749 0.100000 -1.243221
v  -1.500000 0.100000 -1.203498
v  -1.648251 0.100000 -1.243221
v  -1.756779 0.100000 -1.351749
v  -1.796502 0.100000 -1.500000
v  -1.796502 -0.100000 -1.500000
v  -1.756779 -0.100000 -1.351749
v  -1.648251 -0.100000 -1.243221
v  -1.500000 -0.100000 -1.203498
v  -1.351749 -0.100000 -1.243221
v  -1.243222 -0.100000 -1.351749
v  -1.203498 -0.100000 -1.500000
v  -1.929984 1.999999 -1.251749
v  -1.996503 1.999999 -1.499998
v  -1.996503 1.950000 -1.499998
v  -1.929984 1.950000 -1.251749
v  -1.748253 1.999999 -1.070017
v  -1.748253 1.950000 -1.070017
v  -1.499999 1.999999 -1.003497
v  -1.499999 1.950000 -1.003497
v  -1.251749 1.999999 -1.070016
v  -1.251749 1.950000 -1.070016
v  -1.070016 1.999999 -1.251749
v  -1.070016 1.950000 -1.251749
v  -1.003497 1.999999 -1.500000
v  -1.003497 1.950000 -1.500000
v  -1.886683 1.950000 -1.276749
v  -1.946502 1.950000 -1.499998
v  -1.946502 1.900000 -1.499998
v  -1.886683 1.900000 -1.276749
v  -1.723251 1.950000 -1.113318
v  -1.723251 1.900000 -1.113318
v  -1.500000 1.950000 -1.053498
v  -1.500000 1.900000 -1.053498
v  -1.276749 1.950000 -1.113317
v  -1.276749 1.900000 -1.113317
v  -1.113318 1.950000 -1.276749
v  -1.113318 1.900000 -1.276749
v  -1.053498 1.950000 -1.500000
v  -1.053498 1.900000 -1.500000
v  -1.843381 1.900000 -1.301749
v  -1.896502 1.900000 -1.499999
v  -1.896502 1.850000 -1.499999
v  -1.843381 1.850000 -1.301749
v  -1.698251 1.900000 -1.156619
v  -1.698251 1.850000 -1.156619
v  -1.500000 1.900000 -1.103498
v  -1.500000 1.850000 -1.103498
v  -1.301749 1.900000 -1.156619
v  -1.301749 1.850000 -1.156619
v  -1.156619 1.900000 -1.301749
v  -1.156619 1.850000 -1.301749
v  -1.103498 1.900000 -1.500000
v  -1.103498 1.850000 -1.500000
v  -1.800080 1.850000 -1.326749
v  -1.846502 1.850000 -1.499999
v  -1.846502 1.800000 -1.499999
v  -1.800080 1.800000 -1.326749
v  -1.673251 1.850000 -1.199920
v  -1.673251 1.800000 -1.199920
v  -1.500000 1.850000 -1.153498
v  -1.500000 1.800000 -1.153498
v  -1.326749 1.850000 -1.199920
v  -1.326749 1.800000 -1.199920
v  -1.199920 1.850000 -1.326749
v  -1.199920 1.800000 -1.326749
v  -1.153498 1.850000 -1.500000
v  -1.153498 1.800000 -1.500000
v  -1.199920 1.999999 -1.326749
v  -1.153498 1.999999 -1.500000
v  -1.326749 1.999999 -1.199920
v  -1.500000 1.999999 -1.153498
v  -1.673251 1.999999 -1.199920
v  -1.800080 1.999999 -1.326749
v  -1.846502 1.999999 -1.499999
v  -1.796502 1.800000 -1.500000
v  -1.756779 1.800000 -1.351749
v  -1.648251 1.800000 -1.243221
v  -1.500000 1.800000 -1.203498
v  -1.351749 1.800000 -1.243221
v  -1.243222 1.800000 -1.351749
v  -1.203498 1.800000 -1.500000
v  -1.156619 1.999999 -1.301749
v  -1.103498 1.999999 -1.500000
v  -1.301749 1.999999 -1.156619
v  -1.500000 1.999999 -1.103498
v  -1.698251 1.999999 -1.156619
v  -1.843381 1.999999 -1.301749
v  -1.896502 1.999999 -1.499999
v  -1.113318 1.999999 -1.276749
v  -1.053498 1.999999 -1.500000
v  -1.276749 1.999999 -1.113317
v  -1.500000 1.999999 -1.053498
v  -1.723251 1.999999 -1.113318
v  -1.886683 1.999999 -1.276749
v  -1.946502 1.999999 -1.499998
# 163 vertices

vn -0.866025 0.000000 0.500001
vn -0.965925 0.000000 0.258821
vn -0.500000 0.000000 0.866025
vn -0.000000 0.000000 1.000000
vn 0.500000 0.000000 0.866026
vn 0.866025 0.000000 0.500000
vn 0.965926 0.000000 0.258819
vn 0.000000 -1.000000 -0.000000
vn 0.000000 1.000000 -0.000000
vn -0.000002 1.000000 0.000001
vn -0.000001 1.000000 0.000002
vn -0.000000 1.000000 0.000002
vn 0.000001 1.000000 0.000002
vn 0.000002 1.000000 0.000001
vn -0.000000 1.000000 0.000003
vn -0.866026 0.000001 0.500000
vn -0.965926 0.000004 0.258817
vn -0.965926 0.000002 0.258819
vn 0.866025 0.000000 0.500001
vn 0.965926 0.000000 0.258820
vn -0.866025 0.000000 0.500000
vn -0.500001 0.000000 0.866025
vn 0.000000 0.000000 1.000000
vn 0.500000 0.000000 0.866025
vn -0.866025 -0.000000 0.500001
vn -0.500000 -0.000000 0.866025
vn -0.000000 -0.000000 1.000000
vn 0.500000 -0.000000 0.866026
vn -0.000000 -1.000000 0.000002
vn -0.000001 -1.000000 0.000001
# 30 vertex normals

vt 0.333333 0.000000 1.000000
vt 0.333333 0.053694 1.000000
vt 0.250000 0.053694 1.000000
vt 0.250000 0.000000 1.000000
vt 0.416667 0.000000 1.000000
vt 0.416667 0.053694 1.000000
vt 0.500000 0.000000 1.000000
vt 0.500000 0.053694 1.000000
vt 0.583333 0.000000 1.000000
vt 0.583333 0.053694 1.000000
vt 0.666667 0.000000 1.000000
vt 0.666667 0.053694 1.000000
vt 0.750000 0.000000 1.000000
vt 0.750000 0.053694 1.000000
vt 0.750000 0.066987 -0.250000
vt 0.500000 0.000000 -0.250000
vt 0.500000 0.250000 -0.250000
vt 0.625000 0.283494 -0.250000
vt 0.933013 0.250000 -0.250000
vt 0.716506 0.375000 -0.250000
vt 1.000000 0.500000 -0.250000
vt 0.750000 0.500000 -0.250000
vt 0.933013 0.750000 -0.250000
vt 0.716506 0.625000 -0.250000
vt 0.750000 0.933012 -0.250000
vt 0.625000 0.716506 -0.250000
vt 0.500000 1.000000 -0.250000
vt 0.500000 0.750000 -0.250000
vt 0.500000 0.500000 -0.250000
vt 0.500000 0.000000 0.250000
vt 0.750000 0.066987 0.250000
vt 0.625000 0.283494 0.250000
vt 0.500000 0.250000 0.250000
vt 0.933013 0.250000 0.250000
vt 0.716506 0.375000 0.250000
vt 1.000000 0.500000 0.250000
vt 0.750000 0.500000 0.250000
vt 0.933013 0.750000 0.250000
vt 0.716506 0.625000 0.250000
vt 0.750000 0.933012 0.250000
vt 0.625000 0.716506 0.250000
vt 0.500000 1.000000 0.250000
vt 0.500000 0.750000 0.250000
vt 0.500000 0.500000 0.250000
vt 0.333333 0.563791 1.000000
vt 0.250000 0.563791 1.000000
vt 0.250000 0.510097 1.000000
vt 0.333333 0.510097 1.000000
vt 0.416667 0.563791 1.000000
vt 0.416667 0.510097 1.000000
vt 0.500000 0.563791 1.000000
vt 0.500000 0.510097 1.000000
vt 0.583333 0.563791 1.000000
vt 0.583333 0.510097 1.000000
vt 0.666667 0.563791 1.000000
vt 0.666667 0.510097 1.000000
vt 0.750000 0.563791 1.000000
vt 0.750000 0.510097 1.000000
vt 0.333333 1.000000 1.000000
vt 0.250000 1.000000 1.000000
vt 0.250000 0.990198 1.000000
vt 0.333333 0.990198 1.000000
vt 0.416667 1.000000 1.000000
vt 0.416667 0.990198 1.000000
vt 0.500000 1.000000 1.000000
vt 0.500000 0.990198 1.000000
vt 0.583333 1.000000 1.000000
vt 0.583333 0.990198 1.000000
vt 0.666667 1.000000 1.000000
vt 0.666667 0.990198 1.000000
vt 0.750000 1.000000 1.000000
vt 0.750000 0.990198 1.000000
vt 0.250000 0.980396 1.000000
vt 0.333333 0.980396 1.000000
vt 0.416667 0.980396 1.000000
vt 0.500000 0.980396 1.000000
vt 0.583333 0.980396 1.000000
vt 0.666667 0.980396 1.000000
vt 0.750000 0.980396 1.000000
vt 0.250000 0.970593 1.000000
vt 0.333333 0.970593 1.000000
vt 0.416667 0.970593 1.000000
vt 0.500000 0.970593 1.000000
vt 0.583333 0.970593 1.000000
vt 0.666667 0.970593 1.000000
vt 0.750000 0.970593 1.000000
vt 0.250000 0.960791 1.000000
vt 0.333333 0.960791 1.000000
vt 0.416667 0.960791 1.000000
vt 0.500000 0.960791 1.000000
vt 0.583333 0.960791 1.000000
vt 0.666667 0.960791 1.000000
vt 0.750000 0.960791 1.000000
# 93 texture coords

g Object05
usemtl Marble_Light
s 8
f 149/137/50 150/138/50 151/139/51 
f 151/139/51 152/140/51 149/137/50 
f 153/141/52 154/142/52 150/138/50 
f 150/138/50 149/137/50 153/141/52 
f 155/143/53 156/144/53 154/142/52 
f 154/142/52 153/141/52 155/143/53 
f 157/145/54 158/146/54 156/144/53 
f 156/144/53 155/143/53 157/145/54 
f 159/147/55 160/148/55 158/146/54 
f 158/146/54 157/145/54 159/147/55 
f 161/149/56 162/150/56 160/148/55 
f 160/148/55 159/147/55 161/149/56 
s 1
f 163/151/57 164/152/57 165/153/57 
f 165/153/57 166/154/57 163/151/57 
f 167/155/57 163/151/57 166/154/57 
f 166/154/57 168/156/57 167/155/57 
f 169/157/57 167/155/57 168/156/57 
f 168/156/57 170/158/57 169/157/57 
f 171/159/57 169/157/57 170/158/57 
f 170/158/57 172/160/57 171/159/57 
f 173/161/57 171/159/57 172/160/57 
f 172/160/57 174/162/57 173/161/57 
f 175/163/57 173/161/57 174/162/57 
f 174/162/57 176/164/57 175/163/57 
f 166/154/57 165/153/57 177/165/57 
f 168/156/57 166/154/57 177/165/57 
f 170/158/57 168/156/57 177/165/57 
f 172/160/57 170/158/57 177/165/57 
f 174/162/57 172/160/57 177/165/57 
f 176/164/57 174/162/57 177/165/57 
f 178/166/58 179/167/58 180/168/59 
f 180/168/59 181/169/59 178/166/58 
f 179/167/58 182/170/58 183/171/60 
f 183/171/60 180/168/59 179/167/58 
f 182/170/58 184/172/58 185/173/61 
f 185/173/61 183/171/60 182/170/58 
f 184/172/58 186/174/58 187/175/62 
f 187/175/62 185/173/61 184/172/58 
f 186/174/58 188/176/58 189/177/63 
f 189/177/63 187/175/62 186/174/58 
f 188/176/58 190/178/58 191/179/63 
f 191/179/63 189/177/63 188/176/58 
f 181/169/59 180/168/59 192/180/64 
f 180/168/59 183/171/60 192/180/64 
f 183/171/60 185/173/61 192/180/64 
f 185/173/61 187/175/62 192/180/64 
f 187/175/62 189/177/63 192/180/64 
f 189/177/63 191/179/63 192/180/64 
s off
f 164/152/57 163/151/57 149/137/57 
f 149/137/57 152/140/57 164/152/57 
f 163/151/57 167/155/57 153/141/57 
f 153/141/57 149/137/57 163/151/57 
f 167/155/57 169/157/57 155/143/57 
f 155/143/57 153/141/57 167/155/57 
f 169/157/57 171/159/57 157/145/57 
f 157/145/57 155/143/57 169/157/57 
f 171/159/57 173/161/57 159/147/57 
f 159/147/57 157/145/57 171/159/57 
f 173/161/57 175/163/57 161/149/57 
f 161/149/57 159/147/57 173/161/57 
f 193/150/58 194/148/58 160/148/58 
f 160/148/58 162/150/58 193/150/58 
f 194/148/58 195/146/58 158/146/58 
f 158/146/58 160/148/58 194/148/58 
f 195/146/58 196/144/58 156/144/58 
f 156/144/58 158/146/58 195/146/58 
f 196/144/58 197/142/58 154/142/58 
f 154/142/58 156/144/58 196/144/58 
f 197/142/58 198/138/58 150/138/58 
f 150/138/58 154/142/58 197/142/58 
f 198/138/58 199/139/58 151/139/58 
f 151/139/58 150/138/58 198/138/58 
s 8
f 200/181/65 201/182/66 202/183/67 
f 202/183/67 203/184/50 200/181/65 
f 204/185/52 200/181/65 203/184/50 
f 203/184/50 205/186/52 204/185/52 
f 206/187/53 204/185/52 205/186/52 
f 205/186/52 207/188/53 206/187/53 
f 208/189/54 206/187/53 207/188/53 
f 207/188/53 209/190/54 208/189/54 
f 210/191/55 208/189/54 209/190/54 
f 209/190/54 211/192/68 210/191/55 
f 212/193/69 210/191/55 211/192/68 
f 211/192/68 213/194/69 212/193/69 
s off
f 214/193/58 215/191/58 210/191/58 
f 210/191/58 212/193/58 214/193/58 
f 215/191/58 216/189/58 208/189/58 
f 208/189/58 210/191/58 215/191/58 
f 216/189/58 217/187/58 206/187/58 
f 206/187/58 208/189/58 216/189/58 
f 217/187/58 218/185/58 204/185/58 
f 204/185/58 206/187/58 217/187/58 
f 218/185/58 219/181/58 200/181/58 
f 200/181/58 204/185/58 218/185/58 
f 219/181/58 220/182/58 201/182/58 
f 201/182/58 200/181/58 219/181/58 
f 221/183/57 222/184/57 203/184/57 
f 203/184/57 202/183/57 221/183/57 
f 222/184/57 223/186/57 205/186/57 
f 205/186/57 203/184/57 222/184/57 
f 223/186/57 224/188/57 207/188/57 
f 207/188/57 205/186/57 223/186/57 
f 224/188/57 225/190/57 209/190/57 
f 209/190/57 207/188/57 224/188/57 
f 225/190/57 226/192/57 211/192/57 
f 211/192/57 209/190/57 225/190/57 
f 226/192/57 227/194/57 213/194/57 
f 213/194/57 211/192/57 226/192/57 
s 8
f 228/195/70 229/196/51 230/197/51 
f 230/197/51 231/198/70 228/195/70 
f 232/199/71 228/195/70 231/198/70 
f 231/198/70 233/200/71 232/199/71 
f 234/201/72 232/199/71 233/200/71 
f 233/200/71 235/202/72 234/201/72 
f 236/203/73 234/201/72 235/202/72 
f 235/202/72 237/204/73 236/203/73 
f 238/205/68 236/203/73 237/204/73 
f 237/204/73 239/206/55 238/205/68 
f 240/207/69 238/205/68 239/206/55 
f 239/206/55 241/208/69 240/207/69 
f 242/198/50 243/197/51 244/209/51 
f 244/209/51 245/210/50 242/198/50 
f 246/200/52 242/198/50 245/210/50 
f 245/210/50 247/211/52 246/200/52 
f 248/202/53 246/200/52 247/211/52 
f 247/211/52 249/212/53 248/202/53 
f 250/204/54 248/202/53 249/212/53 
f 249/212/53 251/213/54 250/204/54 
f 252/206/68 250/204/54 251/213/54 
f 251/213/54 253/214/68 252/206/68 
f 254/208/69 252/206/68 253/214/68 
f 253/214/68 255/215/69 254/208/69 
f 256/210/50 257/209/51 258/216/51 
f 258/216/51 259/217/74 256/210/50 
f 260/211/75 256/210/50 259/217/74 
f 259/217/74 261/218/75 260/211/75 
f 262/212/76 260/211/75 261/218/75 
f 261/218/75 263/219/53 262/212/76 
f 264/213/77 262/212/76 263/219/53 
f 263/219/53 265/220/54 264/213/77 
f 266/214/68 264/213/77 265/220/54 
f 265/220/54 267/221/55 266/214/68 
f 268/215/69 266/214/68 267/221/55 
f 267/221/55 269/222/69 268/215/69 
f 270/217/50 271/216/51 272/223/51 
f 272/223/51 273/224/50 270/217/50 
f 274/218/52 270/217/50 273/224/50 
f 273/224/50 275/225/52 274/218/52 
f 276/219/53 274/218/52 275/225/52 
f 275/225/52 277/226/53 276/219/53 
f 278/220/54 276/219/53 277/226/53 
f 277/226/53 279/227/54 278/220/54 
f 280/221/55 278/220/54 279/227/54 
f 279/227/54 281/228/55 280/221/55 
f 282/222/56 280/221/55 281/228/55 
f 281/228/55 283/229/69 282/222/56 
s off
f 190/178/58 188/176/58 284/205/58 
f 284/205/58 285/207/58 190/178/58 
f 188/176/58 186/174/58 286/203/58 
f 286/203/58 284/205/58 188/176/58 
f 186/174/58 184/172/58 287/201/58 
f 287/201/58 286/203/58 186/174/58 
f 184/172/58 182/170/58 288/199/58 
f 288/199/58 287/201/58 184/172/58 
f 182/170/58 179/167/58 289/195/58 
f 289/195/58 288/199/58 182/170/58 
f 179/167/58 178/166/58 290/196/58 
f 290/196/58 289/195/58 179/167/58 
f 291/223/57 292/224/57 273/224/57 
f 273/224/57 272/223/57 291/223/57 
f 292/224/57 293/225/57 275/225/57 
f 275/225/57 273/224/57 292/224/57 
f 293/225/57 294/226/57 277/226/57 
f 277/226/57 275/225/57 293/225/57 
f 294/226/57 295/227/57 279/227/57 
f 279/227/57 277/226/57 294/226/57 
f 295/227/57 296/228/57 281/228/57 
f 281/228/57 279/227/57 295/227/57 
f 296/228/78 297/229/78 283/229/78 
f 283/229/79 281/228/79 296/228/79 
f 271/216/57 270/217/57 259/217/57 
f 259/217/57 258/216/57 271/216/57 
f 270/217/57 274/218/57 261/218/57 
f 261/218/57 259/217/57 270/217/57 
f 274/218/57 276/219/57 263/219/57 
f 263/219/57 261/218/57 274/218/57 
f 276/219/57 278/220/57 265/220/57 
f 265/220/57 263/219/57 276/219/57 
f 278/220/57 280/221/57 267/221/57 
f 267/221/57 265/220/57 278/220/57 
f 280/221/57 282/222/57 269/222/57 
f 269/222/57 267/221/57 280/221/57 
f 285/207/58 284/205/58 298/205/58 
f 298/205/58 299/207/58 285/207/58 
f 284/205/58 286/203/58 300/203/58 
f 300/203/58 298/205/58 284/205/58 
f 286/203/58 287/201/58 301/201/58 
f 301/201/58 300/203/58 286/203/58 
f 287/201/58 288/199/58 302/199/58 
f 302/199/58 301/201/58 287/201/58 
f 288/199/58 289/195/58 303/195/58 
f 303/195/58 302/199/58 288/199/58 
f 289/195/58 290/196/58 304/196/58 
f 304/196/58 303/195/58 289/195/58 
f 257/209/57 256/210/57 245/210/57 
f 245/210/57 244/209/57 257/209/57 
f 256/210/57 260/211/57 247/211/57 
f 247/211/57 245/210/57 256/210/57 
f 260/211/57 262/212/57 249/212/57 
f 249/212/57 247/211/57 260/211/57 
f 262/212/57 264/213/57 251/213/57 
f 251/213/57 249/212/57 262/212/57 
f 264/213/57 266/214/57 253/214/57 
f 253/214/57 251/213/57 264/213/57 
f 266/214/57 268/215/57 255/215/57 
f 255/215/57 253/214/57 266/214/57 
f 299/207/58 298/205/58 305/205/58 
f 305/205/58 306/207/58 299/207/58 
f 298/205/58 300/203/58 307/203/58 
f 307/203/58 305/205/58 298/205/58 
f 300/203/58 301/201/58 308/201/58 
f 308/201/58 307/203/58 300/203/58 
f 301/201/58 302/199/58 309/199/58 
f 309/199/58 308/201/58 301/201/58 
f 302/199/58 303/195/58 310/195/58 
f 310/195/58 309/199/58 302/199/58 
f 303/195/58 304/196/58 311/196/58 
f 311/196/58 310/195/58 303/195/58 
f 243/197/57 242/198/57 231/198/57 
f 231/198/57 230/197/57 243/197/57 
f 242/198/57 246/200/57 233/200/57 
f 233/200/57 231/198/57 242/198/57 
f 246/200/57 248/202/57 235/202/57 
f 235/202/57 233/200/57 246/200/57 
f 248/202/57 250/204/57 237/204/57 
f 237/204/57 235/202/57 248/202/57 
f 250/204/57 252/206/57 239/206/57 
f 239/206/57 237/204/57 250/204/57 
f 252/206/57 254/208/57 241/208/57 
f 241/208/57 239/206/57 252/206/57 
f 306/207/58 305/205/58 238/205/58 
f 238/205/58 240/207/58 306/207/58 
f 305/205/58 307/203/58 236/203/58 
f 236/203/58 238/205/58 305/205/58 
f 307/203/58 308/201/58 234/201/58 
f 234/201/58 236/203/58 307/203/58 
f 308/201/58 309/199/58 232/199/58 
f 232/199/58 234/201/58 308/201/58 
f 309/199/58 310/195/58 228/195/58 
f 228/195/58 232/199/58 309/199/58 
f 310/195/58 311/196/58 229/196/58 
f 229/196/58 228/195/58 310/195/58 
# 252 faces

#
# object Cylinder05
#

v  -1.203498 -1.255043 1.500000
v  -1.243221 -1.255043 1.351749
v  -1.243221 -0.510086 1.351749
v  -1.203498 -0.510086 1.500000
v  -1.351749 -1.255043 1.243221
v  -1.351749 -0.510086 1.243221
v  -1.500000 -1.255043 1.203498
v  -1.500000 -0.510086 1.203498
v  -1.648251 -1.255043 1.243221
v  -1.648251 -0.510086 1.243221
v  -1.756779 -1.255043 1.351749
v  -1.756779 -0.510086 1.351749
v  -1.796502 -1.255043 1.500000
v  -1.796502 -0.510086 1.500000
v  -1.243221 -0.100000 1.351749
v  -1.203498 -0.100000 1.500000
v  -1.351749 -0.100000 1.243221
v  -1.500000 -0.100000 1.203498
v  -1.648251 -0.100000 1.243221
v  -1.756779 -0.100000 1.351749
v  -1.796502 -0.100000 1.500000
v  -1.203498 0.234870 1.500000
v  -1.243221 0.234870 1.351749
v  -1.243221 0.979827 1.351749
v  -1.203498 0.979827 1.500000
v  -1.351749 0.234870 1.243221
v  -1.351749 0.979827 1.243221
v  -1.500000 0.234870 1.203498
v  -1.500000 0.979827 1.203498
v  -1.648251 0.234870 1.243221
v  -1.648251 0.979827 1.243221
v  -1.756779 0.234870 1.351749
v  -1.756779 0.979827 1.351749
v  -1.796502 0.234870 1.500000
v  -1.796502 0.979827 1.500000
v  -1.243221 1.800000 1.351749
v  -1.203498 1.800000 1.500000
v  -1.351749 1.800000 1.243221
v  -1.500000 1.800000 1.203498
v  -1.648251 1.800000 1.243221
v  -1.756779 1.800000 1.351749
v  -1.796502 1.800000 1.500000
v  -1.203498 -1.800000 1.500000
v  -1.243221 -1.800000 1.351749
v  -1.351749 -1.800000 1.243221
v  -1.500000 -1.800000 1.203498
v  -1.648251 -1.800000 1.243221
v  -1.756779 -1.800000 1.351749
v  -1.796502 -1.800000 1.500000
v  -1.203498 0.100000 1.500000
v  -1.243221 0.100000 1.351749
v  -1.351749 0.100000 1.243221
v  -1.500000 0.100000 1.203498
v  -1.648251 0.100000 1.243221
v  -1.756779 0.100000 1.351749
v  -1.796502 0.100000 1.500000
# 56 vertices

vn 0.965926 -0.000000 -0.258819
vn 0.866025 -0.000000 -0.500000
vn 0.500000 -0.000000 -0.866025
vn 0.500000 0.000000 -0.866025
vn -0.000000 -0.000000 -1.000000
vn -0.500000 -0.000000 -0.866025
vn -0.866025 -0.000000 -0.500000
vn -0.965926 -0.000000 -0.258819
vn 0.866025 0.000000 -0.500000
vn 0.965926 0.000000 -0.258819
vn 0.000000 0.000000 -1.000000
vn -0.500000 0.000000 -0.866025
vn -0.866025 0.000000 -0.500000
vn -0.965926 0.000000 -0.258819
vn -0.000000 0.000000 -1.000000
# 15 vertex normals

vt 1.500000 0.455176 0.999001
vt 1.666667 0.455176 0.999001
vt 1.666667 1.075353 0.999001
vt 1.500000 1.075353 0.999001
vt 1.833333 0.455176 0.999001
vt 1.833333 1.075353 0.999001
vt 2.000000 0.455176 0.999001
vt 2.000000 1.075353 0.999001
vt 2.166667 0.455176 0.999001
vt 2.166667 1.075353 0.999001
vt 0.166667 0.455176 0.999001
vt 0.333333 0.455176 0.999001
vt 0.333333 1.075353 0.999001
vt 0.166667 1.075353 0.999001
vt 0.500000 0.455176 0.999001
vt 0.500000 1.075353 0.999001
vt 1.666667 1.416750 0.999001
vt 1.500000 1.416750 0.999001
vt 1.833333 1.416750 0.999001
vt 2.000000 1.416750 0.999001
vt 2.166667 1.416750 0.999001
vt 0.333333 1.416750 0.999001
vt 0.166667 1.416750 0.999001
vt 0.500000 1.416750 0.999001
vt 1.500000 1.695530 0.999001
vt 1.666667 1.695530 0.999001
vt 1.666667 2.315707 0.999001
vt 1.500000 2.315707 0.999001
vt 1.833333 1.695530 0.999001
vt 1.833333 2.315707 0.999001
vt 2.000000 1.695530 0.999001
vt 2.000000 2.315707 0.999001
vt 2.166667 1.695530 0.999001
vt 2.166667 2.315707 0.999001
vt 0.166667 1.695530 0.999001
vt 0.333333 1.695530 0.999001
vt 0.333333 2.315707 0.999001
vt 0.166667 2.315707 0.999001
vt 0.500000 1.695530 0.999001
vt 0.500000 2.315707 0.999001
vt 1.666667 2.998502 0.999001
vt 1.500000 2.998502 0.999001
vt 1.833333 2.998502 0.999001
vt 2.000000 2.998502 0.999001
vt 2.166667 2.998502 0.999001
vt 0.333333 2.998502 0.999001
vt 0.166667 2.998502 0.999001
vt 0.500000 2.998502 0.999001
vt 1.500000 0.001499 0.999001
vt 1.666667 0.001499 0.999001
vt 1.833333 0.001499 0.999001
vt 2.000000 0.001499 0.999001
vt -0.000000 0.455176 0.999001
vt -0.000000 0.001499 0.999001
vt 0.166667 0.001499 0.999001
vt 0.333333 0.001499 0.999001
vt 0.500000 0.001499 0.999001
vt 1.500000 1.583250 0.999001
vt 1.666667 1.583250 0.999001
vt 1.833333 1.583250 0.999001
vt 2.000000 1.583250 0.999001
vt -0.000000 1.695530 0.999001
vt -0.000000 1.583250 0.999001
vt 0.166667 1.583250 0.999001
vt 0.333333 1.583250 0.999001
vt 0.500000 1.583250 0.999001
# 66 texture coords

g Cylinder05
usemtl Tiles01
s 8
f 312/230/80 313/231/81 314/232/81 
f 314/232/81 315/233/80 312/230/80 
f 313/231/81 316/234/82 317/235/83 
f 317/235/83 314/232/81 313/231/81 
f 316/234/82 318/236/84 319/237/84 
f 319/237/84 317/235/83 316/234/82 
f 318/236/84 320/238/85 321/239/85 
f 321/239/85 319/237/84 318/236/84 
f 320/240/85 322/241/86 323/242/86 
f 323/242/86 321/243/85 320/240/85 
f 322/241/86 324/244/87 325/245/87 
f 325/245/87 323/242/86 322/241/86 
f 314/232/81 326/246/88 327/247/89 
f 327/247/89 315/233/80 314/232/81 
f 317/235/83 328/248/83 326/246/88 
f 326/246/88 314/232/81 317/235/83 
f 319/237/84 329/249/90 328/248/83 
f 328/248/83 317/235/83 319/237/84 
f 321/239/85 330/250/91 329/249/90 
f 329/249/90 319/237/84 321/239/85 
f 323/242/86 331/251/92 330/252/91 
f 330/252/91 321/243/85 323/242/86 
f 325/245/87 332/253/93 331/251/92 
f 331/251/92 323/242/86 325/245/87 
f 333/254/89 334/255/88 335/256/88 
f 335/256/88 336/257/89 333/254/89 
f 334/255/88 337/258/83 338/259/83 
f 338/259/83 335/256/88 334/255/88 
f 337/258/83 339/260/94 340/261/94 
f 340/261/94 338/259/83 337/258/83 
f 339/260/94 341/262/91 342/263/91 
f 342/263/91 340/261/94 339/260/94 
f 341/264/91 343/265/92 344/266/92 
f 344/266/92 342/267/91 341/264/91 
f 343/265/92 345/268/93 346/269/93 
f 346/269/93 344/266/92 343/265/92 
f 335/256/88 347/270/88 348/271/89 
f 348/271/89 336/257/89 335/256/88 
f 338/259/83 349/272/83 347/270/88 
f 347/270/88 335/256/88 338/259/83 
f 340/261/94 350/273/94 349/272/83 
f 349/272/83 338/259/83 340/261/94 
f 342/263/91 351/274/91 350/273/94 
f 350/273/94 340/261/94 342/263/91 
f 344/266/92 352/275/92 351/276/91 
f 351/276/91 342/267/91 344/266/92 
f 346/269/93 353/277/93 352/275/92 
f 352/275/92 344/266/92 346/269/93 
f 313/231/81 312/230/80 354/278/89 
f 354/278/89 355/279/88 313/231/81 
f 316/234/82 313/231/81 355/279/88 
f 355/279/88 356/280/83 316/234/82 
f 318/236/84 316/234/82 356/280/83 
f 356/280/83 357/281/94 318/236/84 
f 320/240/85 318/282/84 357/283/94 
f 357/283/94 358/284/91 320/240/85 
f 322/241/86 320/240/85 358/284/91 
f 358/284/91 359/285/92 322/241/86 
f 324/244/87 322/241/86 359/285/92 
f 359/285/92 360/286/93 324/244/87 
f 334/255/88 333/254/89 361/287/89 
f 361/287/89 362/288/88 334/255/88 
f 337/258/83 334/255/88 362/288/88 
f 362/288/88 363/289/83 337/258/83 
f 339/260/94 337/258/83 363/289/83 
f 363/289/83 364/290/94 339/260/94 
f 341/264/91 339/291/94 364/292/94 
f 364/292/94 365/293/91 341/264/91 
f 343/265/92 341/264/91 365/293/91 
f 365/293/91 366/294/92 343/265/92 
f 345/268/93 343/265/92 366/294/92 
f 366/294/92 367/295/93 345/268/93 
# 72 faces

#
# object Object06
#

v  -1.199920 -2.000000 1.326749
v  -1.199920 -1.800000 1.326749
v  -1.153498 -1.800000 1.500000
v  -1.153498 -2.000000 1.500000
v  -1.326749 -2.000000 1.199920
v  -1.326749 -1.800000 1.199920
v  -1.500000 -2.000000 1.153498
v  -1.500000 -1.800000 1.153498
v  -1.673251 -2.000000 1.199920
v  -1.673251 -1.800000 1.199920
v  -1.800079 -2.000000 1.326747
v  -1.800079 -1.800000 1.326747
v  -1.846502 -2.000000 1.500001
v  -1.846502 -1.800000 1.500001
v  -1.243221 -2.000000 1.351749
v  -1.203498 -2.000000 1.500000
v  -1.351749 -2.000000 1.500000
v  -1.371611 -2.000000 1.425874
v  -1.351749 -2.000000 1.243221
v  -1.425874 -2.000000 1.371611
v  -1.500000 -2.000000 1.203498
v  -1.500000 -2.000000 1.351749
v  -1.648251 -2.000000 1.243221
v  -1.574126 -2.000000 1.371611
v  -1.756779 -2.000000 1.351749
v  -1.628389 -2.000000 1.425874
v  -1.796502 -2.000000 1.500000
v  -1.648251 -2.000000 1.500000
v  -1.500000 -2.000000 1.500000
v  -1.203498 1.999999 1.500000
v  -1.243221 1.999999 1.351749
v  -1.371611 1.999999 1.425874
v  -1.351749 1.999999 1.500000
v  -1.351749 1.999999 1.243221
v  -1.425874 1.999999 1.371611
v  -1.500000 1.999999 1.203498
v  -1.500000 1.999999 1.351749
v  -1.648251 1.999999 1.243221
v  -1.574126 1.999999 1.371611
v  -1.756779 1.999999 1.351749
v  -1.628389 1.999999 1.425874
v  -1.796502 1.999999 1.500000
v  -1.648251 1.999999 1.500000
v  -1.500000 2.000000 1.500000
v  -1.243221 -1.800000 1.351749
v  -1.203498 -1.800000 1.500000
v  -1.796502 -1.800000 1.500000
v  -1.756779 -1.800000 1.351749
v  -1.648251 -1.800000 1.243221
v  -1.500000 -1.800000 1.203498
v  -1.351749 -1.800000 1.243221
v  -1.199920 0.100000 1.326749
v  -1.153498 0.100000 1.500000
v  -1.153497 -0.100000 1.500000
v  -1.199920 -0.100000 1.326749
v  -1.326749 0.100000 1.199920
v  -1.326749 -0.100000 1.199920
v  -1.500000 0.100000 1.153498
v  -1.500000 -0.100000 1.153497
v  -1.673251 0.100000 1.199920
v  -1.673251 -0.100000 1.199920
v  -1.800079 0.100000 1.326747
v  -1.800081 -0.100000 1.326750
v  -1.846502 0.100000 1.499998
v  -1.846503 -0.100000 1.500001
v  -1.243221 0.100000 1.351749
v  -1.203498 0.100000 1.500000
v  -1.796502 0.100000 1.500000
v  -1.756779 0.100000 1.351749
v  -1.648251 0.100000 1.243221
v  -1.500000 0.100000 1.203498
v  -1.351749 0.100000 1.243221
v  -1.203498 -0.100000 1.500000
v  -1.243221 -0.100000 1.351749
v  -1.351749 -0.100000 1.243221
v  -1.500000 -0.100000 1.203498
v  -1.648251 -0.100000 1.243221
v  -1.756779 -0.100000 1.351749
v  -1.796502 -0.100000 1.500000
v  -1.070016 1.999999 1.251749
v  -1.003497 1.999999 1.500000
v  -1.003497 1.950000 1.500000
v  -1.070016 1.950000 1.251749
v  -1.251749 1.999999 1.070016
v  -1.251749 1.950000 1.070016
v  -1.500000 1.999999 1.003497
v  -1.500000 1.950000 1.003497
v  -1.748251 1.999999 1.070016
v  -1.748251 1.950000 1.070016
v  -1.929983 1.999999 1.251747
v  -1.929983 1.950000 1.251747
v  -1.996503 1.999999 1.500002
v  -1.996503 1.950000 1.500002
v  -1.113317 1.950000 1.276749
v  -1.053498 1.950000 1.500000
v  -1.053498 1.900000 1.500000
v  -1.113317 1.900000 1.276749
v  -1.276749 1.950000 1.113317
v  -1.276749 1.900000 1.113317
v  -1.500000 1.950000 1.053498
v  -1.500000 1.900000 1.053498
v  -1.723251 1.950000 1.113317
v  -1.723251 1.900000 1.113317
v  -1.886682 1.950000 1.276747
v  -1.886682 1.900000 1.276747
v  -1.946502 1.950000 1.500002
v  -1.946502 1.900000 1.500002
v  -1.156619 1.900000 1.301749
v  -1.103498 1.900000 1.500000
v  -1.103498 1.850000 1.500000
v  -1.156619 1.850000 1.301749
v  -1.301749 1.900000 1.156619
v  -1.301749 1.850000 1.156619
v  -1.500000 1.900000 1.103498
v  -1.500000 1.850000 1.103498
v  -1.698251 1.900000 1.156619
v  -1.698251 1.850000 1.156619
v  -1.843380 1.900000 1.301747
v  -1.843380 1.850000 1.301747
v  -1.896502 1.900000 1.500001
v  -1.896502 1.850000 1.500001
v  -1.199920 1.850000 1.326749
v  -1.153498 1.850000 1.500000
v  -1.153498 1.800000 1.500000
v  -1.199920 1.800000 1.326749
v  -1.326749 1.850000 1.199920
v  -1.326749 1.800000 1.199920
v  -1.500000 1.850000 1.153498
v  -1.500000 1.800000 1.153498
v  -1.673251 1.850000 1.199920
v  -1.673251 1.800000 1.199920
v  -1.800079 1.850000 1.326747
v  -1.800079 1.800000 1.326747
v  -1.846502 1.850000 1.500001
v  -1.846502 1.800000 1.500001
v  -1.153498 1.999999 1.500000
v  -1.199920 1.999999 1.326749
v  -1.800079 1.999999 1.326747
v  -1.846502 1.999999 1.500001
v  -1.673251 1.999999 1.199920
v  -1.500000 1.999999 1.153498
v  -1.326749 1.999999 1.199920
v  -1.203498 1.800000 1.500000
v  -1.243221 1.800000 1.351749
v  -1.351749 1.800000 1.243221
v  -1.500000 1.800000 1.203498
v  -1.648251 1.800000 1.243221
v  -1.756779 1.800000 1.351749
v  -1.796502 1.800000 1.500000
v  -1.103498 1.999999 1.500000
v  -1.156619 1.999999 1.301749
v  -1.843380 1.999999 1.301747
v  -1.896502 1.999999 1.500001
v  -1.698251 1.999999 1.156619
v  -1.500000 1.999999 1.103498
v  -1.301749 1.999999 1.156619
v  -1.053498 1.999999 1.500000
v  -1.113317 1.999999 1.276749
v  -1.886682 1.999999 1.276747
v  -1.946502 1.999999 1.500002
v  -1.723251 1.999999 1.113317
v  -1.500000 1.999999 1.053498
v  -1.276749 1.999999 1.113317
# 163 vertices

vn 0.866025 0.000000 -0.500000
vn 0.965926 0.000000 -0.258819
vn 0.500000 0.000000 -0.866025
vn -0.000000 0.000000 -1.000000
vn -0.499999 0.000000 -0.866026
vn -0.866025 0.000000 -0.500001
vn -0.965926 0.000000 -0.258819
vn 0.000000 -1.000000 -0.000000
vn 0.000000 1.000000 -0.000000
vn 0.000002 1.000000 -0.000001
vn 0.000001 1.000000 -0.000002
vn -0.000000 1.000000 -0.000002
vn -0.000001 1.000000 -0.000002
vn -0.000002 1.000000 -0.000001
vn 0.000000 1.000000 -0.000003
vn 0.866025 -0.000000 -0.500000
vn -0.500000 -0.000001 -0.866025
vn -0.866023 0.000001 -0.500004
vn -0.866027 -0.000002 -0.499997
vn -0.965926 0.000000 -0.258820
vn -0.965927 -0.000004 -0.258815
vn 0.500000 0.000000 -0.866026
vn -0.000001 -1.000000 -0.000001
vn 0.000000 -1.000000 -0.000001
# 24 vertex normals

vt 0.833333 0.000000 1.000000
vt 0.833333 0.053694 1.000000
vt 0.750000 0.053694 1.000000
vt 0.750000 0.000000 1.000000
vt 0.916667 0.000000 1.000000
vt 0.916667 0.053694 1.000000
vt 1.000000 0.000000 1.000000
vt 1.000000 0.053694 1.000000
vt 0.083333 0.000000 1.000000
vt 0.083333 0.053694 1.000000
vt 0.000000 0.053694 1.000000
vt 0.000000 0.000000 1.000000
vt 0.166667 0.000000 1.000000
vt 0.166667 0.053694 1.000000
vt 0.250000 0.000000 1.000000
vt 0.250000 0.053694 1.000000
vt 0.250000 0.933013 -0.250000
vt 0.500000 1.000000 -0.250000
vt 0.500000 0.750000 -0.250000
vt 0.375000 0.716506 -0.250000
vt 0.066987 0.750000 -0.250000
vt 0.283494 0.625000 -0.250000
vt 0.000000 0.500000 -0.250000
vt 0.250000 0.500000 -0.250000
vt 0.066987 0.250000 -0.250000
vt 0.283494 0.375000 -0.250000
vt 0.250000 0.066987 -0.250000
vt 0.375000 0.283494 -0.250000
vt 0.500000 0.000000 -0.250000
vt 0.500000 0.250000 -0.250000
vt 0.500000 0.500000 -0.250000
vt 0.500000 1.000000 0.250000
vt 0.250000 0.933013 0.250000
vt 0.375000 0.716506 0.250000
vt 0.500000 0.750000 0.250000
vt 0.066987 0.750000 0.250000
vt 0.283494 0.625000 0.250000
vt 0.000000 0.500000 0.250000
vt 0.250000 0.500000 0.250000
vt 0.066987 0.250000 0.250000
vt 0.283494 0.375000 0.250000
vt 0.250000 0.066987 0.250000
vt 0.375000 0.283494 0.250000
vt 0.500000 0.000000 0.250000
vt 0.500000 0.250000 0.250000
vt 0.500000 0.500000 0.250000
vt 0.833333 0.563791 1.000000
vt 0.750000 0.563791 1.000000
vt 0.750000 0.510097 1.000000
vt 0.833333 0.510097 1.000000
vt 0.916667 0.563791 1.000000
vt 0.916667 0.510097 1.000000
vt 1.000000 0.563791 1.000000
vt 1.000000 0.510097 1.000000
vt 0.083333 0.563791 1.000000
vt 0.000000 0.563791 1.000000
vt 0.000000 0.510097 1.000000
vt 0.083333 0.510097 1.000000
vt 0.166667 0.563791 1.000000
vt 0.166667 0.510097 1.000000
vt 0.250000 0.563791 1.000000
vt 0.250000 0.510097 1.000000
vt 0.833333 1.000000 1.000000
vt 0.750000 1.000000 1.000000
vt 0.750000 0.990198 1.000000
vt 0.833333 0.990198 1.000000
vt 0.916667 1.000000 1.000000
vt 0.916667 0.990198 1.000000
vt 1.000000 1.000000 1.000000
vt 1.000000 0.990198 1.000000
vt 0.083333 1.000000 1.000000
vt 0.000000 1.000000 1.000000
vt 0.000000 0.990198 1.000000
vt 0.083333 0.990198 1.000000
vt 0.166667 1.000000 1.000000
vt 0.166667 0.990198 1.000000
vt 0.250000 1.000000 1.000000
vt 0.250000 0.990198 1.000000
vt 0.750000 0.980396 1.000000
vt 0.833333 0.980396 1.000000
vt 0.916667 0.980396 1.000000
vt 1.000000 0.980396 1.000000
vt 0.000000 0.980396 1.000000
vt 0.083333 0.980396 1.000000
vt 0.166667 0.980396 1.000000
vt 0.250000 0.980396 1.000000
vt 0.750000 0.970593 1.000000
vt 0.833333 0.970593 1.000000
vt 0.916667 0.970593 1.000000
vt 1.000000 0.970593 1.000000
vt 0.000000 0.970593 1.000000
vt 0.083333 0.970593 1.000000
vt 0.166667 0.970593 1.000000
vt 0.250000 0.970593 1.000000
vt 0.750000 0.960791 1.000000
vt 0.833333 0.960791 1.000000
vt 0.916667 0.960791 1.000000
vt 1.000000 0.960791 1.000000
vt 0.000000 0.960791 1.000000
vt 0.083333 0.960791 1.000000
vt 0.166667 0.960791 1.000000
vt 0.250000 0.960791 1.000000
# 102 texture coords

g Object06
usemtl Marble_Light
s 8
f 368/296/95 369/297/95 370/298/96 
f 370/298/96 371/299/96 368/296/95 
f 372/300/97 373/301/97 369/297/95 
f 369/297/95 368/296/95 372/300/97 
f 374/302/98 375/303/98 373/301/97 
f 373/301/97 372/300/97 374/302/98 
f 376/304/99 377/305/99 375/306/98 
f 375/306/98 374/307/98 376/304/99 
f 378/308/100 379/309/100 377/305/99 
f 377/305/99 376/304/99 378/308/100 
f 380/310/101 381/311/101 379/309/100 
f 379/309/100 378/308/100 380/310/101 
s 1
f 382/312/102 383/313/102 384/314/102 
f 384/314/102 385/315/102 382/312/102 
f 386/316/102 382/312/102 385/315/102 
f 385/315/102 387/317/102 386/316/102 
f 388/318/102 386/316/102 387/317/102 
f 387/317/102 389/319/102 388/318/102 
f 390/320/102 388/318/102 389/319/102 
f 389/319/102 391/321/102 390/320/102 
f 392/322/102 390/320/102 391/321/102 
f 391/321/102 393/323/102 392/322/102 
f 394/324/102 392/322/102 393/323/102 
f 393/323/102 395/325/102 394/324/102 
f 385/315/102 384/314/102 396/326/102 
f 387/317/102 385/315/102 396/326/102 
f 389/319/102 387/317/102 396/326/102 
f 391/321/102 389/319/102 396/326/102 
f 393/323/102 391/321/102 396/326/102 
f 395/325/102 393/323/102 396/326/102 
f 397/327/103 398/328/103 399/329/104 
f 399/329/104 400/330/104 397/327/103 
f 398/328/103 401/331/103 402/332/105 
f 402/332/105 399/329/104 398/328/103 
f 401/331/103 403/333/103 404/334/106 
f 404/334/106 402/332/105 401/331/103 
f 403/333/103 405/335/103 406/336/107 
f 406/336/107 404/334/106 403/333/103 
f 405/335/103 407/337/103 408/338/108 
f 408/338/108 406/336/107 405/335/103 
f 407/337/103 409/339/103 410/340/108 
f 410/340/108 408/338/108 407/337/103 
f 400/330/104 399/329/104 411/341/109 
f 399/329/104 402/332/105 411/341/109 
f 402/332/105 404/334/106 411/341/109 
f 404/334/106 406/336/107 411/341/109 
f 406/336/107 408/338/108 411/341/109 
f 408/338/108 410/340/108 411/341/109 
s off
f 383/313/102 382/312/102 368/296/102 
f 368/296/102 371/299/102 383/313/102 
f 382/312/102 386/316/102 372/300/102 
f 372/300/102 368/296/102 382/312/102 
f 386/316/102 388/318/102 374/302/102 
f 374/302/102 372/300/102 386/316/102 
f 388/318/102 390/320/102 376/304/102 
f 376/304/102 374/307/102 388/318/102 
f 390/320/102 392/322/102 378/308/102 
f 378/308/102 376/304/102 390/320/102 
f 392/322/102 394/324/102 380/310/102 
f 380/310/102 378/308/102 392/322/102 
f 412/297/103 413/298/103 370/298/103 
f 370/298/103 369/297/103 412/297/103 
f 414/311/103 415/309/103 379/309/103 
f 379/309/103 381/311/103 414/311/103 
f 415/309/103 416/305/103 377/305/103 
f 377/305/103 379/309/103 415/309/103 
f 416/305/103 417/306/103 375/306/103 
f 375/306/103 377/305/103 416/305/103 
f 417/303/103 418/301/103 373/301/103 
f 373/301/103 375/303/103 417/303/103 
f 418/301/103 412/297/103 369/297/103 
f 369/297/103 373/301/103 418/301/103 
s 8
f 419/342/110 420/343/96 421/344/96 
f 421/344/96 422/345/110 419/342/110 
f 423/346/97 419/342/110 422/345/110 
f 422/345/110 424/347/97 423/346/97 
f 425/348/98 423/346/97 424/347/97 
f 424/347/97 426/349/98 425/348/98 
f 427/350/99 425/351/98 426/352/98 
f 426/352/98 428/353/111 427/350/99 
f 429/354/112 427/350/99 428/353/111 
f 428/353/111 430/355/113 429/354/112 
f 431/356/114 429/354/112 430/355/113 
f 430/355/113 432/357/115 431/356/114 
s off
f 433/342/103 434/343/103 420/343/103 
f 420/343/103 419/342/103 433/342/103 
f 435/356/103 436/354/103 429/354/103 
f 429/354/103 431/356/103 435/356/103 
f 436/354/103 437/350/103 427/350/103 
f 427/350/103 429/354/103 436/354/103 
f 437/350/103 438/351/103 425/351/103 
f 425/351/103 427/350/103 437/350/103 
f 438/348/103 439/346/103 423/346/103 
f 423/346/103 425/348/103 438/348/103 
f 439/346/103 433/342/103 419/342/103 
f 419/342/103 423/346/103 439/346/103 
f 440/344/102 441/345/102 422/345/102 
f 422/345/102 421/344/102 440/344/102 
f 441/345/102 442/347/102 424/347/102 
f 424/347/102 422/345/102 441/345/102 
f 442/347/102 443/349/102 426/349/102 
f 426/349/102 424/347/102 442/347/102 
f 443/352/102 444/353/102 428/353/102 
f 428/353/102 426/352/102 443/352/102 
f 444/353/102 445/355/102 430/355/102 
f 430/355/102 428/353/102 444/353/102 
f 445/355/102 446/357/102 432/357/102 
f 432/357/102 430/355/102 445/355/102 
s 8
f 447/358/95 448/359/96 449/360/96 
f 449/360/96 450/361/95 447/358/95 
f 451/362/97 447/358/95 450/361/95 
f 450/361/95 452/363/97 451/362/97 
f 453/364/98 451/362/97 452/363/97 
f 452/363/97 454/365/98 453/364/98 
f 455/366/99 453/367/98 454/368/98 
f 454/368/98 456/369/99 455/366/99 
f 457/370/100 455/366/99 456/369/99 
f 456/369/99 458/371/100 457/370/100 
f 459/372/114 457/370/100 458/371/100 
f 458/371/100 460/373/114 459/372/114 
f 461/361/95 462/360/96 463/374/96 
f 463/374/96 464/375/95 461/361/95 
f 465/363/97 461/361/95 464/375/95 
f 464/375/95 466/376/116 465/363/97 
f 467/365/98 465/363/97 466/376/116 
f 466/376/116 468/377/98 467/365/98 
f 469/369/99 467/368/98 468/378/98 
f 468/378/98 470/379/99 469/369/99 
f 471/371/100 469/369/99 470/379/99 
f 470/379/99 472/380/100 471/371/100 
f 473/373/101 471/371/100 472/380/100 
f 472/380/100 474/381/101 473/373/101 
f 475/375/95 476/374/96 477/382/96 
f 477/382/96 478/383/95 475/375/95 
f 479/376/97 475/375/95 478/383/95 
f 478/383/95 480/384/97 479/376/97 
f 481/377/98 479/376/97 480/384/97 
f 480/384/97 482/385/98 481/377/98 
f 483/379/99 481/378/98 482/386/98 
f 482/386/98 484/387/99 483/379/99 
f 485/380/100 483/379/99 484/387/99 
f 484/387/99 486/388/100 485/380/100 
f 487/381/101 485/380/100 486/388/100 
f 486/388/100 488/389/101 487/381/101 
f 489/383/95 490/382/96 491/390/96 
f 491/390/96 492/391/95 489/383/95 
f 493/384/97 489/383/95 492/391/95 
f 492/391/95 494/392/97 493/384/97 
f 495/385/98 493/384/97 494/392/97 
f 494/392/97 496/393/98 495/385/98 
f 497/387/99 495/386/98 496/394/98 
f 496/394/98 498/395/99 497/387/99 
f 499/388/100 497/387/99 498/395/99 
f 498/395/99 500/396/100 499/388/100 
f 501/389/101 499/388/100 500/396/100 
f 500/396/100 502/397/101 501/389/101 
s off
f 398/328/103 397/327/103 503/359/103 
f 503/359/103 504/358/103 398/328/103 
f 409/339/103 407/337/103 505/370/103 
f 505/370/103 506/372/103 409/339/103 
f 407/337/103 405/335/103 507/366/103 
f 507/366/103 505/370/103 407/337/103 
f 405/335/103 403/333/103 508/367/103 
f 508/367/103 507/366/103 405/335/103 
f 403/333/103 401/331/103 509/362/103 
f 509/362/103 508/364/103 403/333/103 
f 401/331/103 398/328/103 504/358/103 
f 504/358/103 509/362/103 401/331/103 
f 510/390/117 511/391/117 492/391/117 
f 492/391/118 491/390/118 510/390/118 
f 511/391/102 512/392/102 494/392/102 
f 494/392/102 492/391/102 511/391/102 
f 512/392/102 513/393/102 496/393/102 
f 496/393/102 494/392/102 512/392/102 
f 513/394/102 514/395/102 498/395/102 
f 498/395/102 496/394/102 513/394/102 
f 514/395/102 515/396/102 500/396/102 
f 500/396/102 498/395/102 514/395/102 
f 515/396/102 516/397/102 502/397/102 
f 502/397/102 500/396/102 515/396/102 
f 490/382/102 489/383/102 478/383/102 
f 478/383/102 477/382/102 490/382/102 
f 489/383/102 493/384/102 480/384/102 
f 480/384/102 478/383/102 489/383/102 
f 493/384/102 495/385/102 482/385/102 
f 482/385/102 480/384/102 493/384/102 
f 495/386/102 497/387/102 484/387/102 
f 484/387/102 482/386/102 495/386/102 
f 497/387/102 499/388/102 486/388/102 
f 486/388/102 484/387/102 497/387/102 
f 499/388/102 501/389/102 488/389/102 
f 488/389/102 486/388/102 499/388/102 
f 504/358/103 503/359/103 517/359/103 
f 517/359/103 518/358/103 504/358/103 
f 506/372/103 505/370/103 519/370/103 
f 519/370/103 520/372/103 506/372/103 
f 505/370/103 507/366/103 521/366/103 
f 521/366/103 519/370/103 505/370/103 
f 507/366/103 508/367/103 522/367/103 
f 522/367/103 521/366/103 507/366/103 
f 508/364/103 509/362/103 523/362/103 
f 523/362/103 522/364/103 508/364/103 
f 509/362/103 504/358/103 518/358/103 
f 518/358/103 523/362/103 509/362/103 
f 476/374/102 475/375/102 464/375/102 
f 464/375/102 463/374/102 476/374/102 
f 475/375/102 479/376/102 466/376/102 
f 466/376/102 464/375/102 475/375/102 
f 479/376/102 481/377/102 468/377/102 
f 468/377/102 466/376/102 479/376/102 
f 481/378/102 483/379/102 470/379/102 
f 470/379/102 468/378/102 481/378/102 
f 483/379/102 485/380/102 472/380/102 
f 472/380/102 470/379/102 483/379/102 
f 485/380/102 487/381/102 474/381/102 
f 474/381/102 472/380/102 485/380/102 
f 518/358/103 517/359/103 524/359/103 
f 524/359/103 525/358/103 518/358/103 
f 520/372/103 519/370/103 526/370/103 
f 526/370/103 527/372/103 520/372/103 
f 519/370/103 521/366/103 528/366/103 
f 528/366/103 526/370/103 519/370/103 
f 521/366/103 522/367/103 529/367/103 
f 529/367/103 528/366/103 521/366/103 
f 522/364/103 523/362/103 530/362/103 
f 530/362/103 529/364/103 522/364/103 
f 523/362/103 518/358/103 525/358/103 
f 525/358/103 530/362/103 523/362/103 
f 462/360/102 461/361/102 450/361/102 
f 450/361/102 449/360/102 462/360/102 
f 461/361/102 465/363/102 452/363/102 
f 452/363/102 450/361/102 461/361/102 
f 465/363/102 467/365/102 454/365/102 
f 454/365/102 452/363/102 465/363/102 
f 467/368/102 469/369/102 456/369/102 
f 456/369/102 454/368/102 467/368/102 
f 469/369/102 471/371/102 458/371/102 
f 458/371/102 456/369/102 469/369/102 
f 471/371/102 473/373/102 460/373/102 
f 460/373/102 458/371/102 471/371/102 
f 525/358/103 524/359/103 448/359/103 
f 448/359/103 447/358/103 525/358/103 
f 527/372/103 526/370/103 457/370/103 
f 457/370/103 459/372/103 527/372/103 
f 526/370/103 528/366/103 455/366/103 
f 455/366/103 457/370/103 526/370/103 
f 528/366/103 529/367/103 453/367/103 
f 453/367/103 455/366/103 528/366/103 
f 529/364/103 530/362/103 451/362/103 
f 451/362/103 453/364/103 529/364/103 
f 530/362/103 525/358/103 447/358/103 
f 447/358/103 451/362/103 530/362/103 
# 252 faces

